[
  {
    "text": "Spouse",
    "type": "SPOUSE",
    "code" : "01",
    "mirrorType": "SPOUSE"
  },
  {
    "text": "Parent of child",
    "type": "PARENT_OF_CHILD",
    "code": "03",
    "mirrorType": "CHILD"
  },
  {
    "text": "Parent of adopted child",
    "type": "PARENT_OF_ADOPTED_CHILD",
    "code": "G8",
    "mirrorType": "ADOPTED_CHILD"
  },
  {
    "text": "Adopted child (son or daughter)",
    "type": "ADOPTED_CHILD",
    "code": "09",
    "mirrorType": "PARENT_OF_ADOPTED_CHILD"
  },
  {
    "text": "Ward of court-appointed guardian",
    "type": "WARD_OF_COURT_APPOINTED_GUARDIAN",
    "code": "15",
    "mirrorType": "COURT_APPOINTED_GUARDIAN"
  },
  {
    "text": "Stepparent (stepfather or stepmother)",
    "type": "STEPPARENT",
    "code": "16",
    "mirrorType": "STEPCHILD"
  },
  {
    "text": "Stepchild (stepson or step daughter)",
    "type": "STEPCHILD",
    "code": "17",
    "mirrorType": "STEPPARENT"
  },
  {
    "text": "Child (son or daughter)",
    "type": "CHILD",
    "code": "19",
    "mirrorType": "PARENT_OF_CHILD"
  },
  {
    "text": "Court-appointed guardian",
    "type": "COURT_APPOINTED_GUARDIAN",
    "code": "31",
    "mirrorType": "WARD_OF_COURT_APPOINTED_GUARDIAN"
  },
  {
    "text": "Sibling (brother or sister)",
    "type": "SIBLING",
    "code": "14",
    "mirrorType": "SIBLING"
  },
  {
    "text": "Self",
    "type": "SELF",
    "code": "18",
    "mirrorType": "SELF"
  }
]
