[
  {
    "text": "Brother-in-law or Sister-in-law",
    "type": "BROTHER_OR_SISTER_IN_LAW",
    "code": "12",
    "mirrorType": "BROTHER_OR_SISTER_IN_LAW"
  },
  {
    "text": "Child (son or daughter)",
    "type": "CHILD",
    "code": "19",
    "mirrorType": "PARENT"
  },
  {
    "text": "Court Appointed or Live-In Guardian",
    "type": "COURT_APPOINTED_GUARDIAN",
    "code": "31",
    "mirrorType": "WARD"
  },
  {
    "text": "Domestic partner",
    "type": "DOMESTIC_PARTNER",
    "code": "53",
    "mirrorType": "DOMESTIC_PARTNER"
  },
  {
    "text": "First Cousin",
    "type": "FIRST_COUSIN",
    "code": "08",
    "mirrorType": "FIRST_COUSIN"
  },
  {
    "text": "Former Spouse",
    "type": "FORMER_SPOUSE",
    "code": "25",
    "mirrorType": "FORMER_SPOUSE"
  },
  {
    "text": "Grandchild (grandson or granddaughter)",
    "type": "GRANDCHILD",
    "code": "05",
    "mirrorType": "GRANDPARENT"
  },
  {
    "text": "Grandparent (grandfather or grandmother)",
    "type": "GRANDPARENT",
    "code": "04",
    "mirrorType": "GRANDCHILD"
  },
  {
    "text": "Mother-in-law or Father-in-law",
    "type": "MOTHER_FATHER_IN_LAW",
    "code": "13",
    "mirrorType": "SON_DAUGHTER_IN_LAW"
  },
  {
    "text": "Nephew or Niece",
    "type": "NEPHEW_NIECE",
    "code": "07",
    "mirrorType": "UNCLE_AUNT"
  },
  {
    "text": "Parent (father or mother)",
    "type": "PARENT",
    "code": "03",
    "mirrorType": "CHILD"
  },
  {
    "text": "Self",
    "type": "SELF",
    "code": "18",
    "mirrorType": "SELF"
  },
  {
    "text": "Sibling (brother or sister)",
    "type": "SIBLING",
    "code": "14",
    "mirrorType": "SIBLING"
  },
  {
    "text": "Son-in-law or Daughter-in-law",
    "type": "SON_DAUGHTER_IN_LAW",
    "code": "11",
    "mirrorType": "MOTHER_FATHER_IN_LAW"
  },
  {
    "text": "Spouse",
    "type": "SPOUSE",
    "code" : "01",
    "mirrorType": "SPOUSE"
  },
  {
    "text": "Stepchild (stepson or stepdaughter)",
    "type": "STEPCHILD",
    "code": "17",
    "mirrorType": "STEPPARENT"
  },
  {
    "text": "Stepparent (stepfather or stepmother)",
    "type": "STEPPARENT",
    "code": "16",
    "mirrorType": "STEPCHILD"
  },
  {
    "text": "Uncle or Aunt",
    "type": "UNCLE_AUNT",
    "code": "06",
    "mirrorType": "NEPHEW_NIECE"
  },
  {
    "text": "Ward",
    "type": "WARD",
    "code": "15",
    "mirrorType": "COURT_APPOINTED_GUARDIAN"
  }
]
