SPECIALTY DESCRIPTION,SPECIALTY CODE,TAXONOMY CODE
HOSPITAL,0,282N00000X
ANESTHESIOLOGY,1,207L00000X
FAMILY PRACTICE,2,207Q00000X
INTERNAL MEDICINE,3,207R00000X
ALLERGY IMMUNOLOGY,4,207K00000X
RHEUMATOLOGY,5,207RR0500X
CARDIOVASCULAR DISEASE,6,207RC0000X
DERMATOLOGY,7,207N00000X
ENDOCRINOLOGY,8,207RE0101X
GASTROENTEROLOGY,9,207RG0100X
HEMATOLOGY,10,207RH0000X
INFECTIOUS DISEASES,11,207RI0200X
NEPHROLOGY,12,207RN0300X
NEUROLOGY,13,2084N0400X
PULMONARY,14,207RP1001X
OB-GYN,15,207V00000X
OPHTHALMOLOGY,16,207W00000X
OTOLARYNGOLOGY (ENT),17,207Y00000X
PATHOLOGY,18,207ZP0105X
PEDIATRICS,19,208000000X
PERIODONTICS,20,1223P0300X
PHYSICAL MEDICINE & REHABILITATION,21,208100000X
PSYCHIATRY,22,2084P0800X
RADIOLOGY,23,2085R0202X
GENERAL & VASCULAR SURGERY,24,2086S0129X
NEUROLOGICAL SURGERY,25,207T00000X
ORAL SURGERY,26,204E00000X
ORTHOPEDIC SURGERY,27,207X00000X
PLASTIC & RECONSTRUCTIVE SURGERY,28,2086S0122X
THORACIC SURGERY,29,208G00000X
UROLOGY,30,208800000X
PAIN MANAGEMENT,31,208VP0000X
PSYCHOLOGY,32,103T00000X
PROCTOLOGY,33,208C00000X
MEDICAL & SURGICAL SUPPLY,34,332B00000X
DIALYSIS,35,261QE0700X
FREE-STANDING DIAGNOSTIC,36,261Q00000X
REHABILITATION,37,261QR0400X
GROUP PRACTICE,38,208D00000X
OTHER NON-SPECIFIC,39,208D00000X
PODIATRY,40,213E00000X
HOME HEALTH,41,251E00000X
REFERENCE LABORATORY,42,291U00000X
OUTPATIENT SURGERY CENTER,43,261QA1903X
GENERAL SURGERY,44,208600000X
HAND SURGERY,45,2086S0105X
GLAUCOMA SPECIALIST,46,207W00000X
GASTROINTESTINAL SURGERY,47,208600000X
PEDIATRIC OPHTHALMOLOGY,48,207W00000X
GERIATRICS,49,207RG0300X
NUCLEAR MEDICINE,50,207U00000X
METABOLISM,51,207RE0101X
DIAGNOSTIC MEDICINE,52,2085R0202X
PEDIATRIC ALLERGY IMMUNOLOGY,53,2080P0201X
PEDIATRIC CARDIOLOGY,54,2080P0202X
PEDIATRIC DEVELOPMENTAL DISABILITY,55,2080P0006X
PEDIATRIC EMERGENCY MEDICINE,56,2080P0204X
PEDIATRIC ENDOCRINOLOGY,57,2080P0205X
PEDIATRIC GASTROENTEROLOGY,58,2080P0206X
MEDICAL GENETICS,59,207SG0201X
NEONATAL-PERINATAL MEDICINE,60,2080N0001X
PEDIATRIC INFECTIOUS DISEASE,61,2080P0208X
NEONATOLOGY,62,2080N0001X
PEDIATRIC NEPHROLOGY,63,2080P0210X
PEDIATRIC NEUROLOGY,64,2084N0402X
PEDIATRIC OTOLARYNGOLOGY,65,207YP0228X
PEDIATRIC PSYCHIATRY,66,2084P0804X
PEDIATRIC UTI & LEAD POISONING,67,208000000X
PEDIATRIC SURGERY,68,2086S0120X
PEDIATRIC CARDIOTHORACIC SURGERY,69,2086S0120X
AMBULANCE,70,341600000X
PEDIATRIC ORTHOPEDIC SURGERY,71,207XP3100X
PEDIATRIC PLASTIC & RECONSTRUCTIVE SURGERY,72,2086S0122X
PEDIATRIC UROLOGICAL SURGERY,73,2088P0231X
GERIATRIC SURGERY,74,208600000X
GENERAL PRACTICE,75,208D00000X
CARDIOTHORACIC SURGERY,76,208G00000X
GYNECOLOGY,77,207VG0400X
PEDIATRIC PSYCHOLOGY,78,103TC2200X
PEDIATRIC PULMONARY DISEASE,79,2080P0214X
COLON & RECTAL SURGERY,80,208C00000X
EMERGENCY MEDICINE,81,207P00000X
PEDIATRIC HEMATOLOGY & ONCOLOGY,82,2080P0207X
RADIATION ONCOLOGY,83,2085R0001X
DURABLE MEDICAL EQUIPMENT,84,332B00000X
PHYSICAL THERAPY,85,261QP2000X
OPTOMETRIST,86,152W00000X
DENTIST,87,122300000X
HOME INFUSION,88,251F00000X
SPEECH THERAPY,89,235Z00000X
CLINIC,90,261Q00000X
CHEMICAL DEPENDENCY,91,261QR0405X
GYNECOLOGY INFERTILITY,92,207VE0102X
NURSING,93,163W00000X
HOSPICE CARE,94,251G00000X
PERINATOLOGY,95,2080N0001X
GYNECOLOGICAL ONCOLOGY,96,207VX0201X
VASCULAR SURGERY,97,2086S0129X
AUDIOLOGY,98,231H00000X
CARDIAC ELECTROPHYSIOLOGY,99,207RC0001X
SOCIAL WORKER,100,104100000X
DIETITIAN,101,133V00000X
HEAD & NECK SURGERY,102,207YX0007X
OCCUPATIONAL MEDICINE,103,2083X0100X
REGISTERED PSYCHIATRIC NURSE,104,163WP0808X
REPRODUCTIVE ENDOCRINOLOGY,105,207VE0102X
PREVENTIVE MEDICINE,106,2083P0500X
SKILLED NURSING FACILITY,107,314000000X
NURSING HOME,108,313M00000X
PEDIATRIC RHEUMATOLOGY,109,2080P0216X
ELECTROPHYSIOLOGY,110,246X00000X
PHARMACY,111,333600000X
MATERNAL/FETAL MEDICINE,112,207VM0101X
CARDIOVASCULAR SURGERY,113,208G00000X
DIAGNOSTIC RADIOLOGY,114,2085R0202X
ALTERNATIVE MEDICINE,115,175L00000X
PEDIATRIC ARTHRITIS & RHEUMATOLOGY,116,2080P0216X
CRITICAL CARE,117,207RC0200X
PEDIATRIC CRITICAL CARE,118,2080P0203X
ONCOLOGY,119,207RX0202X
ADOLESCENT MEDICINE,120,207RA0000X
MANIPULATIVE MEDICINE,121,204D00000X
DERMATOPATHOLOGY,122,207ZD0900X
SPECIALTY LABORATORIES,123,291U00000X
ORTHOTICS/PROSTHETICS,124,335E00000X
MOBILE MEDICAL SERVICES,125,261QR0208X
MEDICAL TOXICOLOGY,126,2083T0002X
BREAST PROSTHESIS & SUPPLIES,127,332B00000X
OUTPATIENT SURGERY CENTER,128,261QA1903X
PA/PAC,129,363A00000X
AEROSPACE MEDICINE,130,2083A0100X
PROFESSIONAL COUNSELOR,131,101Y00000X
NURSE PRACTITIONER,132,363L00000X
HOSPITALIST,133,208M00000X
SLEEP MEDICINE,134,207RS0012X
HYPERBARIC MEDICINE,135,2083P0011X
PEDIATRIC NEUROSURGERY,136,207T00000X
NURSE MIDWIFE,137,367A00000X
SURGERY-CRITICAL CARE,138,2086S0102X
NEUROMUSKULOSKELETAL MEDICINE,139,204C00000X
SPORTS MEDICINE,140,207RS0010X
MARITAL & FAMILY THERAPIST,141,106H00000X
INTERVENTIONAL CARDIOLOGY,142,207RI0011X
CRNA,143,367500000X
SLEEP MEDICINE CENTER,144,261QS1200X
GERIATRIC PSYCHIATRY,145,2084P0805X
NEUROTOLOGY,146,207YX0901X
NEURORADIOLOGY,147,2085N0700X
PEDIATRIC DEVELOPMENTAL-BEHAVIORAL,148,2080P0006X
CLINICAL NEUROPHYSIOLOGY,149,2084N0600X
PEDIATRIC PHYSICAL MEDICINE & REHABILITATION,150,2051P0010X
REGISTERED SURGICAL TECHNOLOGIST,151,246ZS0400X
RESPIRATORY THERAPY,152,227800000X
RETAIL HEALTH CLINIC,154,261Q00000X
CLINICAL NURSE SPECIALIST,155,364S00000X
ACUPUNCTURE,156,171100000X
VASCULAR NEUROLOGY,157,2084V0102X
NEUROPSYCHIATRY,158,2084P0800X
NEUROPSYCHOLOGY,159,103G00000X
SPECIAL MATERNITY CARE,200,251E00000X
URGENT CARE,222,261QU0200X
CHIROPRACTIC,333,111N00000X
REHABILITATION HOSPITAL,444,283X00000X
PHO,555,208D00000X
NETWORKS,666,208D00000X
HOSPITAL PHYSICIAN CHARGES,998,282N00000X
MISCELLANEOUS PROVIDER,999,174400000X