 91346,34.26798,-118.46628,
 91355,34.411906,-118.563248,
 91361,34.149652,-118.834479,
 91361,34.149652,-118.834479,
 91380,34.499933,-118.394976,
 91381,34.387324,-118.580131,
 91394,34.263508,-118.526054,
 91396,34.210263,-118.570594,
 91401,34.180193,-118.435047,
 91405,34.200299,-118.449127,
 91412,34.222076,-118.446033,
 91470,34.177794,-118.61468,
 91482,34.201021,-118.475212,
 91499,34.201899,-118.454395,
 91504,34.199567,-118.33054,
 91601,34.167805,-118.372874,
 91604,34.1444,-118.393788,
 91702,34.126829,-117.904725,
 91745,33.99786,-117.966813,
 91747,34.036851,-117.951822,
 91749,34.030733,-117.949992,
 91766,34.044219,-117.753594,
 91772,34.065726,-118.085794,
 91773,34.103583,-117.815018,
 91775,34.11619,-118.0858,
 91790,34.066304,-117.937536,
 91792,34.02208,-117.899846,
 91899,34.080816,-118.135414,
 91915,32.640694,-116.958524,
 91933,32.582379,-117.111447,
 91946,32.742494,-117.032654,
 91947,32.668408,-117.06985,
 91951,32.679002,-117.100208,
 91987,32.592436,-116.638994,
 92009,33.092973,-117.248031,
 92011,33.109961,-117.292217,
 92020,32.794099,-116.967835,
 92028,33.369941,-117.222978,
 92030,33.135119,-117.056194,
 92056,33.198234,-117.284618,
 92123,32.805909,-117.135211,
 92124,32.820692,-117.092976,
 92126,32.91476,-117.142166,
 92131,32.918965,-117.090315,
 92134,32.724805,-117.14506,
 92137,32.8862,-117.101607,
 92149,32.676375,-117.065268,
 92158,32.563682,-116.972887,
 92174,32.705682,-117.084537,
 92175,32.765448,-117.059897,
 92179,32.567887,-116.970748,
 92202,33.661343,-116.297796,
 92223,33.950446,-116.97153,
 92233,33.141583,-115.530308,
 92244,32.794254,-115.57928,
 92247,33.673645,-116.295092,
 92267,34.282982,-114.140264,
 92276,33.813766,-116.376651,
 92283,32.777136,-114.611928,
 92310,35.258661,-116.702985,
 92321,34.254096,-117.171429,
 92329,34.355142,-117.607156,
 92342,34.764688,-117.289709,
 92344,34.394526,-117.399878,
 92374,34.063532,-117.167248,
 92377,34.151693,-117.401367,
 92392,34.482921,-117.373852,
 92403,34.102131,-117.269257,
 92404,34.145287,-117.26112,
 92410,34.107,-117.297413,
 92412,34.084156,-117.261759,
 92506,33.943313,-117.373944,
 92514,33.945007,-117.414714,
 92545,33.741434,-117.012695,
 92562,33.567211,-117.223052,
 92563,33.567549,-117.159274,
 92572,33.785958,-117.226712,
 92584,33.663569,-117.181894,
 92589,33.516968,-117.110213,
 92620,33.715156,-117.764555,
 92629,33.476257,-117.701534,
 92646,33.669006,-117.97046,
 92655,33.744489,-117.98459,
 92679,33.634657,-117.590384,
 92705,33.75764,-117.821157,
 92708,33.710032,-117.952242,
 92802,33.806105,-117.923695,
 92811,33.867401,-117.83099,
 92841,33.786239,-117.977368,
 92844,33.767448,-117.971335,
 92899,33.837257,-117.871219,
 93004,34.280277,-119.16812,
 93032,34.199525,-119.176669,
 93040,34.422467,-118.78461,
 93062,34.287844,-118.741018,
 93094,34.272171,-118.795286,
 93106,34.431306,-119.834277,
 93216,35.75515,-119.276056,
 93218,35.889584,-119.097731,
 93230,36.333528,-119.649781,
 93234,36.185731,-120.092781,
 93237,36.47113,-118.920319,
 93244,36.389265,-119.022434,
 93255,35.724095,-118.123528,
 93283,35.63255,-118.28874,
 93291,36.343947,-119.32883,
 93308,35.427416,-119.039998,
 93380,35.550483,-118.921018,
 93387,35.351514,-118.962431,
 93401,35.259801,-120.651389,
 93402,35.314148,-120.831384,
 93450,35.957591,-120.826092,
 93536,34.690491,-118.247392,
 93549,36.320833,-118.025556,
 93590,34.579596,-118.088681,
 93601,37.383601,-119.725618,
 93604,37.321311,-119.557257,
 93605,37.21179,-119.243574,
 93618,36.535668,-119.393508,
 93626,37.024286,-119.67475,
 93627,36.533932,-120.097715,
 93640,36.741792,-120.395814,
 93641,36.68917,-119.041302,
 93654,36.606403,-119.441896,
 93657,36.738818,-119.52259,
 93670,36.484454,-119.224712,
 93704,36.801585,-119.801021,
 93707,36.730268,-119.786943,
 93720,36.856456,-119.76171,
 93724,36.725228,-119.794478,
 93727,36.750339,-119.706156,
 93740,36.82391,-119.758958,
 93771,36.749697,-119.792435,
 93772,36.74804,-119.791751,
 93773,36.71998,-119.858055,
 93776,36.74636,-119.79049,
 93791,36.790318,-119.829786,
 93906,36.709221,-121.642786,
 93923,36.536566,-121.888696,
 93953,36.593923,-121.943208,
 94019,37.469647,-122.441806,
 94020,37.309378,-122.290236,
 94062,37.454679,-122.257858,
 94070,37.498848,-122.266009,
 94105,37.788893,-122.396717,
 94134,37.719402,-122.408717,
 94143,37.763246,-122.458663,
 94172,37.760435,-122.483159,
 94230,38.474474,-121.444005,
 94248,38.586457,-121.493033,
 94258,38.585278,-121.494965,
 94262,38.583814,-121.492154,
 94273,38.587118,-121.494479,
 94284,38.553196,-121.501479,
 94291,38.559052,-121.497218,
 94293,38.55478,-121.495621,
 94297,38.552997,-121.497372,
 94302,37.447087,-122.156083,
 94304,37.428676,-122.17081,
 94305,37.423303,-122.163103,
 94309,37.416667,-122.166667,
 94497,37.534736,-122.32588,
 94505,37.900085,-121.605539,
 94511,38.023001,-121.652091,
 94512,38.142442,-121.831742,
 94513,37.935734,-121.70268,
 94518,37.950662,-122.028969,
 94531,37.971355,-121.775299,
 94536,37.561144,-122.00097,
 94541,37.674794,-122.088058,
 94545,37.635678,-122.105416,
 94546,37.700965,-122.079615,
 94551,37.700931,-121.763916,
 94553,37.994483,-122.109566,
 94555,37.572947,-122.047436,
 94558,38.333619,-122.302015,
 94560,37.535765,-122.032357,
 94565,38.016874,-121.909117,
 94578,37.702298,-122.124838,
 94588,37.687088,-121.900495,
 94618,37.843099,-122.243846,
 94662,37.840484,-122.293762,
 94806,37.971439,-122.338104,
 94901,37.971726,-122.517259,
 94912,37.97771,-122.506459,
 94920,37.88768,-122.471218,
 94924,37.911757,-122.700058,
 94929,38.253378,-122.965473,
 94930,37.988771,-122.594979,
 94947,38.098529,-122.583671,
 94960,37.983063,-122.569555,
 94964,37.941731,-122.483754,
 94976,37.927431,-122.524551,
 95006,37.146688,-122.132709,
 95014,37.320017,-122.039983,
 95015,37.322857,-122.052958,
 95033,37.148614,-121.959684,
 95041,37.050625,-122.059309,
 95062,36.97124,-121.989816,
 95122,37.327744,-121.837434,
 95126,37.324215,-121.916703,
 95135,37.297445,-121.758368,
 95155,37.3114,-121.900813,
 95156,37.359971,-121.840023,
 95164,37.392519,-121.923858,
 95191,37.324072,-121.917236,
 95201,37.906882,-121.223403,
 95204,37.973346,-121.316133,
 95209,38.036759,-121.344244,
 95221,38.0838,-120.56082,
 95230,37.950175,-120.916757,
 95234,37.934038,-121.427141,
 95311,37.733577,-120.193108,
 95319,37.647502,-120.904123,
 95321,37.848153,-120.177449,
 95322,37.207175,-121.012225,
 95329,37.671606,-120.358134,
 95350,37.673374,-121.007138,
 95352,37.663366,-120.994582,
 95373,37.96662,-120.3108,
 95377,37.723952,-121.450975,
 95381,37.4964,-120.858683,
 95388,37.400381,-120.614154,
 95389,37.648071,-119.720251,
 95407,38.4096,-122.731733,
 95431,38.329558,-122.525306,
 95442,38.36894,-122.52642,
 95448,38.615309,-122.864852,
 95462,38.471304,-123.011028,
 95468,38.887428,-123.642452,
 95532,41.756509,-124.203866,
 95534,40.793242,-124.158139,
 95556,41.289963,-123.551367,
 95558,40.257602,-124.185957,
 95587,39.950369,-123.746566,
 95601,38.423289,-120.826231,
 95607,38.713364,-122.101212,
 95617,38.547703,-121.722184,
 95624,38.422044,-121.362069,
 95630,38.674645,-121.155581,
 95632,38.266221,-121.297698,
 95646,38.68986,-120.080103,
 95672,38.716492,-120.989153,
 95683,38.500285,-121.097193,
 95688,38.388328,-121.991478,
 95691,38.569192,-121.546119,
 95696,38.317497,-121.920793,
 95713,39.077754,-120.964079,
 95776,38.676526,-121.749259,
 95834,38.63581,-121.504808,
 95928,39.724866,-121.813273,
 95939,39.498732,-122.522691,
 95941,39.515197,-121.259303,
 95984,40.04328,-121.11258,
 96003,40.625515,-122.34531,
 96011,40.96967,-122.000419,
 96014,41.329663,-122.830609,
 96021,39.923538,-122.177028,
 96044,41.915957,-122.516144,
 96047,40.467984,-122.621534,
 96047,40.467984,-122.621534,
 96051,40.866088,-122.356491,
 96054,41.118315,-121.139856,
 96074,39.930965,-122.532728,
 96084,40.774706,-121.988586,
 96103,39.789246,-120.650507,
 96105,39.814658,-120.211585,
 96115,41.718144,-120.190248,
 96150,38.915426,-119.987904,
 96151,38.942141,-119.981473,
 96155,39.018968,-120.123053,
 96156,38.947065,-119.970227,
 96161,39.336197,-120.185207,
 90009,33.946409,-118.38356,
 90011,34.007772,-118.258647,
 90013,34.046331,-118.245037,
 90019,34.048656,-118.336844,
 90021,34.030392,-118.240939,
 90022,34.024424,-118.155386,
 90027,34.105338,-118.292253,
 90028,34.10071,-118.328955,
 90034,34.027958,-118.402874,
 90037,34.004461,-118.287625,
 90041,34.134804,-118.208036,
 90046,34.097942,-118.359274,
 90063,34.04514,-118.18593,
 90072,34.097188,-118.309018,
 90080,33.954771,-118.396089,
 90093,34.098083,-118.3364,
 90099,34.062936,-118.236227,
 90103,0,0,
 90209,34.071996,-118.39142,
 90231,33.999494,-118.391303,
 90232,34.019748,-118.395321,
 90262,33.924936,-118.202687,
 90280,33.944541,-118.197399,
 90601,33.995141,-118.041001,
 90605,33.946503,-118.033361,
 90623,33.851111,-118.047555,
 90640,34.014489,-118.112444,
 90680,33.800621,-117.994949,
 90703,33.866761,-118.069534,
 90710,33.794902,-118.299573,
 90711,33.848941,-118.146773,
 90715,33.839505,-118.077895,
 90717,33.793541,-118.316743,
 90734,33.756107,-118.30637,
 90814,33.771152,-118.15288,
 90842,33.819348,-118.168139,
 90847,33.834248,-118.189003,
 91008,34.149673,-117.965948,
 91017,34.131442,-117.987304,
 91020,34.209756,-118.230843,
 91024,34.16511,-118.052071,
 91041,34.262512,-118.318113,
 91116,34.143178,-118.128197,
 91124,34.150182,-118.152862,
 91207,34.164184,-118.247908,
 91208,34.188594,-118.227878,
 91221,34.165334,-118.289424,
 91302,34.140573,-118.6618,
 91305,34.201051,-118.604164,
 91306,34.208592,-118.575853,
 91307,34.198189,-118.640976,
 93215,35.772304,-119.25853,
 93219,35.887381,-119.282,
 93224,35.243332,-119.591648,
 93242,36.440318,-119.73522,
 93245,36.302198,-119.796961,
 93251,35.41324,-119.700727,
 93279,36.329207,-119.291014,
 93280,35.600223,-119.358862,
 93282,36.149403,-119.506075,
 93304,35.341798,-119.02347,
 93389,35.355642,-119.062999,
 93405,35.277069,-120.685446,
 93420,35.121736,-120.560786,
 93426,35.812455,-120.980107,
 93438,34.63638,-120.469031,
 93440,34.745944,-120.301041,
 93446,35.636354,-120.700874,
 93448,35.155278,-120.671389,
 93449,35.147814,-120.650431,
 93454,34.952058,-120.407288,
 93465,35.547823,-120.705246,
 93510,34.487159,-118.197766,
 93513,37.17342,-118.299225,
 93524,34.919082,-117.899972,
 93527,35.705182,-117.836993,
 93531,35.245373,-118.625465,
 93535,34.688556,-118.051688,
 93536,34.690491,-118.247392,
 93545,36.578112,-118.074548,
 93546,37.56438,-118.74451,
 93556,35.623072,-117.670357,
 93562,35.768188,-117.377992,
 93581,35.130447,-118.447638,
 93596,35.006002,-117.651389,
 93607,36.488333,-119.984167,
 93616,36.656218,-119.593182,
 93631,36.507754,-119.551775,
 93633,36.91818,-119.03382,
 93642,37.326667,-119.016667,
 93649,36.823999,-119.35505,
 93650,36.840485,-119.799754,
 93666,36.546876,-119.33567,
 93668,36.640189,-120.264048,
 93729,36.852444,-119.765566,
 93747,36.803212,-119.679921,
 93750,36.83872,-119.788009,
 93775,36.733005,-119.747107,
 93905,36.682776,-121.617355,
 93920,36.198728,-121.734226,
 93925,36.597764,-121.435902,
 93942,36.616965,-121.898809,
 93962,36.677778,-121.654444,
 94015,37.681127,-122.475898,
 94021,37.274432,-122.300574,
 94080,37.653927,-122.428393,
 94104,37.791302,-122.402095,
 94117,37.770762,-122.44283,
 94118,37.782205,-122.45976,
 94121,37.779412,-122.490297,
 94131,37.746159,-122.440488,
 94140,37.7578,-122.412697,
 94161,37.79853,-122.39989,
 94162,0,0,
 94204,38.602817,-121.445876,
 94209,38.58354,-121.493379,
 94232,38.554971,-121.496277,
 94234,38.586063,-121.494453,
 94237,38.585474,-121.493315,
 94239,38.55651,-121.496477,
 94250,38.581619,-121.491498,
 94285,38.552316,-121.500719,
 94289,38.587077,-121.490815,
 94296,38.570922,-121.502908,
 94403,37.538647,-122.299995,
 94503,38.170944,-122.252376,
 94509,37.997468,-121.811807,
 94514,37.843488,-121.61611,
 94519,37.982038,-122.012227,
 94523,37.95319,-122.073709,
 94534,38.252271,-122.098785,
 94543,37.673234,-122.0822,
 94547,38.006571,-122.263748,
 94570,38.115617,-122.140088,
 94606,37.794872,-122.244576,
 94621,37.754515,-122.190033,
 94710,37.867018,-122.296912,
 94801,37.939059,-122.366952,
 94952,38.242029,-122.666722,
 95008,37.281077,-121.951638,
 95010,36.976292,-121.954626,
 95012,36.776076,-121.742021,
 95031,37.130087,-121.938513,
 95042,37.177537,-121.818513,
 95050,37.348776,-121.953946,
 95063,36.982267,-122.009181,
 95076,36.926967,-121.765861,
 95076,36.926967,-121.765861,
 95076,36.926967,-121.765861,
 95117,37.309467,-121.962998,
 95130,37.289462,-121.980434,
 95133,37.373822,-121.858216,
 95141,37.174595,-121.759612,
 95161,37.38574,-121.899338,
 95207,38.001607,-121.322766,
 95213,37.904658,-121.223701,
 95237,38.15643,-121.148477,
 95258,38.155896,-121.308118,
 91311,34.253062,-118.596245,
 91320,34.180649,-118.933331,
 91326,34.274751,-118.546315,
 91328,34.217856,-118.531174,
 91329,34.402859,-117.497647,
 91330,34.254761,-118.523574,
 91357,34.172643,-118.540408,
 91361,34.149652,-118.834479,
 91390,34.507498,-118.401842,
 91406,34.200229,-118.487043,
 91416,34.178039,-118.517445,
 91503,34.180668,-118.307534,
 91605,34.204758,-118.402386,
 91735,34.074913,-118.028045,
 91737,34.14561,-117.581738,
 91743,34.064884,-117.580297,
 91765,34.002332,-117.815736,
 91771,34.065056,-118.083026,
 91778,34.101551,-118.103851,
 91803,34.074173,-118.144955,
 91906,32.667633,-116.477039,
 91914,32.657794,-116.96483,
 91962,32.747872,-116.447257,
 92004,33.155677,-116.203738,
 92014,32.959751,-117.253908,
 92027,33.136996,-117.049483,
 92040,32.857098,-116.918949,
 92070,33.150535,-116.714071,
 92072,32.832358,-117.038812,
 92081,33.170325,-117.241321,
 92088,33.365635,-117.248377,
 92101,32.717599,-117.162498,
 92114,32.706086,-117.053997,
 92116,32.761791,-117.125921,
 92147,32.72377,-117.217555,
 92160,32.783954,-117.0935,
 92168,32.76684,-117.153066,
 92241,33.907856,-116.405528,
 92242,34.127144,-114.37147,
 92248,33.675895,-116.303058,
 92249,32.728955,-115.515084,
 92251,32.842944,-115.582643,
 92257,33.3669,-115.709533,
 92264,33.801428,-116.520264,
 92266,33.427558,-114.728608,
 92270,33.765438,-116.423472,
 92284,34.152235,-116.416375,
 92315,34.247114,-116.889144,
 92323,35.236266,-115.498775,
 92333,34.266659,-116.941287,
 92335,34.089814,-117.448603,
 92337,34.046567,-117.478905,
 92338,34.721111,-116.159167,
 92356,34.444482,-116.928243,
 92372,34.418553,-117.616953,
 92376,34.168893,-117.38719,
 92385,34.232939,-117.184281,
 92391,34.242206,-117.232775,
 92397,34.385198,-117.609477,
 92399,34.029516,-117.054383,
 92406,34.133983,-117.286246,
 92522,33.940256,-117.397192,
 92546,33.74999,-116.96813,
 92552,33.925544,-117.248196,
 92586,33.706363,-117.19783,
 92590,33.494566,-117.189416,
 92592,33.505564,-117.072207,
 92609,33.62401,-117.690845,
 92610,33.687141,-117.661909,
 92618,33.662723,-117.745975,
 92619,33.6699,-117.76458,
 92647,33.718905,-118.000217,
 92662,33.606563,-117.892335,
 92698,33.668598,-117.838637,
 92704,33.722035,-117.907503,
 92725,0,0,
 92782,33.739855,-117.786275,
 92805,33.833059,-117.908002,
 92859,33.802656,-117.78669,
 92865,33.829547,-117.846763,
 92879,33.88267,-117.537089,
 92887,33.88099,-117.73821,
 93020,34.284832,-118.881396,
 93022,34.401797,-119.299428,
 93024,34.440233,-119.260634,
 93033,34.169928,-119.169494,
 93108,34.432435,-119.635841,
 93116,34.491171,-120.038827,
 93160,34.434059,-119.802492,
 93201,35.95859,-119.454962,
 93205,35.587494,-118.475911,
 93220,35.346303,-118.866787,
 93221,36.304761,-119.130849,
 93238,35.748231,-118.42208,
 93242,36.440318,-119.73522,
 93247,36.204294,-119.088047,
 93252,34.992262,-119.389299,
 93265,36.134586,-118.77792,
 93278,36.306081,-119.312092,
 93286,36.422419,-119.104186,
 93287,35.709456,-118.742566,
 93306,35.389305,-118.937679,
 93409,35.22071,-120.636882,
 93432,35.468049,-120.480789,
 93433,35.120198,-120.618369,
 93444,35.034479,-120.495627,
 93452,35.614543,-121.144305,
 95304,37.717851,-121.376583,
 95306,37.43822,-120.089973,
 95310,38.043646,-120.402822,
 95317,37.128368,-120.495393,
 95323,37.616698,-120.729404,
 95325,37.472649,-120.274903,
 95326,37.594442,-120.860701,
 95336,37.811969,-121.213917,
 95356,37.699725,-121.025284,
 95377,37.723952,-121.450975,
 95380,37.49071,-120.851793,
 95401,38.444718,-122.748268,
 95425,38.797009,-123.011344,
 95430,38.495218,-123.143138,
 95437,39.438507,-123.793421,
 95445,38.803162,-123.558359,
 95451,38.965001,-122.779932,
 95454,39.693542,-123.522531,
 95456,39.264684,-123.743959,
 95457,38.898057,-122.597053,
 95458,39.067404,-122.778015,
 95469,39.333488,-123.106975,
 95472,38.39547,-122.841889,
 95485,39.163916,-122.911308,
 95492,38.544465,-122.806825,
 95514,40.330344,-123.689021,
 95526,40.478364,-123.641996,
 95526,40.478364,-123.641996,
 95537,40.727358,-124.211781,
 95545,40.245055,-124.11643,
 95552,40.319817,-123.372988,
 95564,40.785422,-124.202268,
 95604,38.90292,-121.06698,
 95610,38.689136,-121.27287,
 95613,38.827378,-120.881447,
 95618,38.551866,-121.709291,
 95618,38.551866,-121.709291,
 95623,38.648688,-120.84875,
 95637,38.86539,-122.22074,
 95641,38.125092,-121.589353,
 95642,38.360776,-120.750431,
 95650,38.815439,-121.173481,
 95651,38.806973,-120.928012,
 95670,38.604255,-121.282982,
 95686,38.225441,-121.438262,
 95697,38.735793,-121.805997,
 95721,38.914913,-120.009699,
 95799,38.540783,-121.557001,
 95813,38.604017,-121.449164,
 95821,38.622777,-121.385842,
 95822,38.513778,-121.495115,
 95831,38.495496,-121.530337,
 95852,38.605587,-121.441427,
 95919,39.448929,-121.264401,
 95926,39.745136,-121.846352,
 95936,39.561914,-120.82502,
 95938,39.645973,-121.787016,
 95942,39.956139,-121.620902,
 95950,39.052777,-121.884418,
 95954,39.832948,-121.598542,
 95960,39.351442,-121.11476,
 95961,39.090087,-121.558915,
 95966,39.488524,-121.488029,
 95974,39.494588,-121.749311,
 95976,39.753844,-121.870112,
 96022,40.35639,-122.332726,
 96027,41.451492,-122.892534,
 96032,41.62045,-122.890607,
 96034,41.459645,-122.612348,
 96046,40.61783,-123.45121,
 96052,40.732388,-122.827418,
 96061,40.303577,-121.455654,
 96065,40.894456,-121.895215,
 96086,41.84618,-123.213116,
 96090,40.025341,-122.124208,
 96108,41.826704,-120.31077,
 96127,40.417374,-120.649006,
 96129,39.813147,-120.370118,
 96145,39.174073,-120.155846,
 96158,38.925696,-119.966045,
 92171,32.781734,-117.17153,
 92309,35.278999,-116.055073,
 92378,34.2103,-117.241852,
 92411,34.123707,-117.320179,
 92585,33.740862,-117.172817,
 92627,33.647977,-117.917101,
 94514,37.843488,-121.61611,
 94544,37.637037,-122.06622,
 94583,37.754828,-121.957483,
 94708,37.893213,-122.261997,
 95002,37.427296,-121.970884,
 96068,40.954132,-121.114759,
 96137,40.266627,-121.120265,
 91758,34.055007,-117.608926,
 91791,34.064885,-117.897769,
 92018,33.162901,-117.345744,
 92102,32.712616,-117.120334,
 92153,32.567607,-117.08339,
 92210,33.715691,-116.336802,
 92242,34.127144,-114.37147,
 92277,34.157817,-116.053256,
 93714,36.735181,-119.785635,
 93915,36.675734,-121.627987,
 93960,36.425739,-121.322003,
 94038,37.523159,-122.509508,
 95528,40.500179,-123.963333,
 95570,41.073931,-124.129718,
 95656,38.56338,-120.714932,
 91372,34.154498,-118.64317,
 93454,34.952058,-120.407288,
 93504,35.147963,-118.010042,
 93514,37.367,-118.421062,
 93516,35.004859,-117.657663,
 93516,35.004859,-117.657663,
 93542,35.936934,-117.907963,
 93544,34.488553,-117.79698,
 93551,34.605185,-118.183145,
 93602,37.072431,-119.451597,
 93621,36.730483,-119.089029,
 93646,36.624342,-119.337915,
 93656,36.435705,-119.89964,
 93656,36.435705,-119.89964,
 93667,36.993679,-119.402392,
 93706,36.695734,-119.828462,
 93716,36.731026,-119.786485,
 93725,36.667947,-119.741632,
 93761,36.751664,-119.788568,
 93778,36.747457,-119.790491,
 93924,36.470248,-121.716738,
 94014,37.696761,-122.455654,
 94022,37.380725,-122.125818,
 94024,37.353199,-122.08738,
 94026,37.481131,-122.180141,
 94030,37.600258,-122.40145,
 94035,37.412894,-122.049891,
 94063,37.482927,-122.215076,
 94064,37.462934,-122.255439,
 94083,37.643644,-122.411982,
 94085,37.389374,-122.020225,
 94088,37.390976,-122.037328,
 94158,37.771322,-122.391484,
 94206,38.494822,-121.449573,
 94236,38.583196,-121.490865,
 94271,38.583207,-121.491295,
 94508,38.575594,-122.448604,
 94514,37.843488,-121.61611,
 94548,37.974007,-121.658741,
 94571,38.163103,-121.704176,
 94586,37.610071,-121.899931,
 94599,38.404706,-122.361439,
 94601,37.779572,-122.218751,
 94602,37.801464,-122.211677,
 94611,37.827248,-122.233319,
 94618,37.843099,-122.243846,
 94659,37.809982,-122.269201,
 94702,37.865654,-122.286372,
 94703,37.862115,-122.275788,
 94707,37.897001,-122.279618,
 94710,37.867018,-122.296912,
 94712,37.868998,-122.2679,
 94803,37.969738,-122.294483,
 94850,37.947097,-122.381529,
 94925,37.923833,-122.51714,
 94928,38.34631,-122.696633,
 94946,38.048704,-122.666038,
 94953,38.26152,-122.639077,
 94957,37.961173,-122.556238,
 94965,37.860348,-122.497069,
 94971,38.248863,-122.899922,
 94974,37.956461,-122.539347,
 94978,37.984901,-122.580046,
 94998,38.099734,-122.571446,
 95013,37.199573,-121.726813,
 95036,37.243087,-121.971656,
 95044,37.158418,-121.984871,
 95051,37.346238,-121.98578,
 95060,36.981608,-122.042791,
 95066,37.057189,-122.016052,
 95067,36.974167,-122.029722,
 95071,37.25286,-122.029595,
 95075,36.779945,-121.296876,
 95101,37.389289,-121.888016,
 95108,37.33607,-122.090216,
 95111,37.281402,-121.82504,
 95113,37.3345,-121.890445,
 95119,37.231295,-121.789506,
 95124,37.256816,-121.923114,
 95151,37.291739,-121.783728,
 95160,37.21903,-121.860381,
 95205,37.962623,-121.261242,
 95206,37.920701,-121.293163,
 95210,38.023096,-121.299215,
 95224,38.21018,-120.366866,
 95246,38.243919,-120.523528,
 95303,37.455142,-120.685425,
 95304,37.717851,-121.376583,
 95311,37.733577,-120.193108,
 95328,37.558219,-120.911399,
 95329,37.671606,-120.358134,
 95340,37.314919,-120.458131,
 95361,37.771911,-120.832816,
 95361,37.771911,-120.832816,
 95368,37.708831,-121.087267,
 95369,37.520522,-120.46415,
 95370,37.994068,-120.338783,
 95374,37.329205,-120.872953,
 95382,37.52219,-120.850078,
 95386,37.643862,-120.758049,
 95391,37.766273,-121.542162,
 95397,37.660766,-120.993431,
 95428,39.810459,-123.216812,
 95436,38.492872,-122.907279,
 95441,38.707331,-122.906001,
 95449,38.974778,-123.094994,
 95453,39.052304,-122.915372,
 95464,39.129152,-122.856507,
 95547,40.548441,-124.09063,
 95548,41.54171,-124.028903,
 91403,34.154142,-118.460698,
 91702,34.126829,-117.904725,
 91759,34.237495,-117.657882,
 91909,32.607717,-117.070647,
 92075,32.991276,-117.261682,
 93669,37.265109,-119.53942,
 93765,36.833866,-119.82897,
 93926,36.517505,-121.430678,
 95476,38.294095,-122.473554,
 95589,40.033233,-124.030112,
 95659,38.882765,-121.565623,
 95832,38.477281,-121.486928,
 91523,34.169107,-118.336597,
 91748,33.983863,-117.901088,
 91908,32.65994,-117.032213,
 92039,32.847122,-117.275759,
 92109,32.795192,-117.241567,
 92170,32.695868,-117.13559,
 94040,37.387366,-122.091244,
 94124,37.732667,-122.39117,
 94528,37.836151,-121.956555,
 94617,37.757976,-122.147048,
 95972,39.438883,-121.324052,
 96106,39.730768,-120.552796,
 92067,33.011798,-117.201867,
 92130,32.946388,-117.224138,
 92225,33.606357,-114.613948,
 92328,36.425648,-117.090213,
 92366,35.472787,-115.527445,
 92423,34.107116,-117.292358,
 92596,33.633131,-117.09969,
 94567,38.678078,-122.40446,
 94807,37.927153,-122.353849,
 96067,41.315841,-122.322799,
 90015,34.040015,-118.264946,
 90045,33.960493,-118.392014,
 92085,33.191119,-117.228812,
 92142,32.842037,-117.096454,
 92226,33.606806,-114.58789,
 92273,32.792086,-115.692694,
 92308,34.459404,-117.194506,
 92350,34.052083,-117.263767,
 92548,33.750476,-117.113833,
 94404,37.553725,-122.267122,
 94577,37.720457,-122.158686,
 94705,37.857289,-122.252122,
 90056,33.985806,-118.369945,
 90078,34.099648,-118.328037,
 90220,33.885471,-118.234502,
 90245,33.922011,-118.407971,
 92136,32.678744,-117.119958,
 92187,32.724875,-117.166229,
 92255,33.746759,-116.366511,
 92312,34.976965,-117.060012,
 92346,34.125157,-117.20248,
 92395,34.503992,-117.304604,
 92427,34.199862,-117.345353,
 94299,38.564429,-121.469141,
 94525,38.052579,-122.220437,
 94581,38.297277,-122.287663,
 94622,37.749508,-122.194169,
 96124,39.649779,-120.435886,
 90022,34.024424,-118.155386,
 90064,34.035277,-118.42898,
 92121,32.893202,-117.194564,
 92164,32.751071,-117.127245,
 92203,33.746656,-116.279037,
 92240,33.95647,-116.502203,
 92309,35.278999,-116.055073,
 92324,34.063367,-117.319454,
 92394,34.538438,-117.335844,
 94309,37.416667,-122.166667,
 94517,37.932131,-121.923817,
 94549,37.896651,-122.113583,
 94945,38.112827,-122.568619,
 95223,38.278493,-120.319375,
 95646,38.68986,-120.080103,
 95988,39.521998,-122.20038,
 95563,40.882541,-123.541231,
 96063,40.360478,-121.564354,
 96007,40.457058,-122.330121,
 94952,38.242029,-122.666722,
 94591,38.102778,-122.213239,
 94558,38.333619,-122.302015,
 94574,38.511576,-122.462823,
 95461,38.788018,-122.650012,
 95666,38.460497,-120.537484,
 95020,37.018412,-121.579487,
 94060,37.225907,-122.358086,
 95369,37.520522,-120.46415,
 95316,37.538621,-120.791722,
 95360,37.315462,-121.023298,
 93230,36.333528,-119.649781,
 93603,36.639051,-118.989741,
 96162,39.307577,-120.314785,
 93925,36.597764,-121.435902,
 95620,38.440922,-121.824284,
 95615,38.306712,-121.547535,
 94014,37.696761,-122.455654,
 94568,37.713703,-121.920509,
 94611,37.827248,-122.233319,
 94583,37.754828,-121.957483,
 95035,37.434811,-121.895596,
 94028,37.380289,-122.21186,
 94539,37.516343,-121.928674,
 94134,37.719402,-122.408717,
 94112,37.720434,-122.44197,
 93633,36.91818,-119.03382,
 93647,36.554284,-119.27135,
 93630,36.73811,-120.072421,
 93458,34.952621,-120.44763,
 93225,34.821453,-119.054581,
 93461,35.666828,-120.287803,
 93063,34.27862,-118.699699,
 95569,40.387062,-123.914462,
 95595,40.180955,-123.416183,
 95609,38.625313,-121.32742,
 95614,38.8992,-120.976259,
 95621,38.692916,-121.307314,
 95626,38.719783,-121.436356,
 95635,38.91659,-120.903938,
 95636,38.633315,-120.541418,
 95644,38.457312,-120.530419,
 95658,38.875941,-121.14522,
 95678,38.752814,-121.291077,
 95679,38.899229,-122.29085,
 95684,38.603861,-120.665694,
 95699,38.444551,-120.847909,
 95709,38.748501,-120.676174,
 95714,39.203253,-120.824838,
 95735,38.810318,-120.126317,
 95763,38.678182,-121.174368,
 95765,38.813695,-121.264597,
 95820,38.535317,-121.446806,
 95824,38.517522,-121.442851,
 95835,38.670233,-121.513239,
 95837,38.690833,-121.605999,
 95866,38.589449,-121.407836,
 95924,39.198075,-121.018961,
 95930,39.528639,-121.171142,
 95935,39.381504,-121.204558,
 95944,39.586529,-120.818557,
 95946,39.218197,-121.196941,
 95948,39.354961,-121.693359,
 95973,39.787232,-121.864001,
 95977,39.195952,-121.274253,
 95977,39.195952,-121.274253,
 95988,39.521998,-122.20038,
 96001,40.562467,-122.410117,
 96024,40.671801,-122.900308,
 96025,41.211718,-122.275403,
 96049,40.573456,-122.352998,
 96050,41.838916,-122.935069,
 96056,41.098429,-121.341991,
 96076,40.337583,-122.886288,
 96087,40.598045,-122.489673,
 96095,40.711597,-122.601782,
 96096,40.638093,-121.917781,
 96114,40.303222,-120.506422,
 96122,39.815571,-120.467138,
 96130,40.440077,-120.65588,
 96136,40.334217,-120.336426,
 96146,39.179901,-120.218104,
 96157,38.940824,-119.980263,
 90016,34.028308,-118.354097,
 90023,34.023571,-118.203275,
 90038,34.089538,-118.325421,
 90052,33.974069,-118.24851,
 90061,33.922834,-118.274048,
 90079,34.038986,-118.256235,
 90082,34.000545,-118.279071,
 90084,34.056524,-118.265252,
 90201,33.969641,-118.174228,
 90213,34.054812,-118.404164,
 90230,33.996155,-118.395494,
 90240,33.957509,-118.119112,
 90241,33.940791,-118.131941,
 90249,33.900559,-118.318212,
 90260,33.888811,-118.352076,
 90267,33.874322,-118.39546,
 90301,33.9562,-118.354084,
 90302,33.973546,-118.357484,
 90308,33.960454,-118.351465,
 90310,33.927761,-118.319917,
 90402,34.033698,-118.504508,
 90503,33.840059,-118.354052,
 90506,33.885708,-118.329022,
 90624,33.858383,-118.003267,
 90631,33.932025,-117.951138,
 90631,33.932025,-117.951138,
 90633,33.934534,-117.945247,
 90660,33.989763,-118.090638,
 90661,33.998236,-118.080655,
 90670,33.938463,-118.071032,
 90701,33.867009,-118.081108,
 90704,33.342834,-118.327634,
 90707,33.88235,-118.122206,
 90801,33.773782,-118.186314,
 91007,34.12672,-118.053534,
 91023,34.226166,-118.092289,
 91042,34.254539,-118.287521,
 91066,34.142937,-118.031242,
 91185,34.169701,-117.981386,
 91205,34.138465,-118.243648,
 91209,34.14464,-118.250262,
 91301,34.142623,-118.76179,
 91301,34.142623,-118.76179,
 91309,34.2181,-118.595483,
 91310,34.494638,-118.614455,
 91321,34.382287,-118.518942,
 91327,34.273021,-118.551433,
 91345,34.262884,-118.461932,
 91356,34.169158,-118.541409,
 91362,34.181032,-118.825585,
 91362,34.181032,-118.825585,
 91364,34.161764,-118.59919,
 91365,34.172838,-118.605715,
 91377,34.181095,-118.771002,
 91383,34.358853,-118.455629,
 91385,34.389797,-118.558445,
 89061,36.116481,-115.934061,
 91710,34.019106,-117.691385,
 91786,34.101686,-117.662335,
 92275,33.640389,-116.141879,
 91708,33.957941,-117.643518,
 92320,33.995855,-117.06852,
 91759,34.237495,-117.657882,
 91752,33.999882,-117.526841,
 92509,33.996412,-117.44642,
 92672,33.426708,-117.613281,
 92536,33.500084,-116.812772,
 93219,35.887381,-119.282,
 93558,35.351568,-117.627031,
 94589,38.139664,-122.245402,
 95304,37.717851,-121.376583,
 95542,40.093632,-123.788013,
 95587,39.950369,-123.746566,
 95645,38.857192,-121.750385,
 95692,39.034659,-121.408917,
 95899,38.580708,-121.526563,
 93309,35.340759,-119.063274,
 93312,35.390077,-119.116892,
 93384,35.373201,-119.017675,
 93403,35.280162,-120.656816,
 93426,35.812455,-120.980107,
 93428,35.557961,-121.083461,
 93447,35.658885,-120.69535,
 93456,34.942122,-120.461672,
 93457,34.865278,-120.435,
 93517,38.23259,-119.276186,
 93523,34.978184,-117.884202,
 93523,34.978184,-117.884202,
 93532,34.674143,-118.430329,
 93555,35.623021,-117.684258,
 93558,35.351568,-117.627031,
 93560,34.862546,-118.214621,
 93584,34.699023,-118.1386,
 93610,37.097571,-120.270219,
 93611,36.822642,-119.684148,
 93625,36.627355,-119.676481,
 93631,36.507754,-119.551775,
 93637,36.940109,-120.102641,
 93643,37.228974,-119.522366,
 93644,37.33835,-119.641037,
 93651,36.995363,-119.519035,
 93662,36.568616,-119.620975,
 93664,37.089519,-119.269306,
 93675,36.704966,-119.181646,
 93703,36.768181,-119.760874,
 93708,36.736262,-119.782514,
 93741,36.798392,-119.801743,
 93764,36.734126,-119.784633,
 93786,36.638642,-119.90311,
 93902,36.672603,-121.657451,
 93908,36.59995,-121.670256,
 93922,36.489187,-121.744754,
 93928,36.048776,-121.200408,
 93950,36.618708,-121.921264,
 94018,37.505155,-122.470995,
 94027,37.457408,-122.200775,
 94037,37.543182,-122.507644,
 94039,37.395047,-122.076661,
 94061,37.46438,-122.231154,
 94065,37.533506,-122.249176,
 94086,37.370631,-122.026332,
 94107,37.773086,-122.39499,
 94116,37.743852,-122.484764,
 94123,37.800272,-122.435457,
 94125,37.731384,-122.384963,
 94127,37.735616,-122.459982,
 94130,37.824014,-122.374387,
 94133,37.800094,-122.410074,
 94142,37.784406,-122.412228,
 94153,0,0,
 94164,37.787312,-122.422055,
 94177,37.791933,-122.39841,
 94188,37.74066,-122.383372,
 94245,38.587191,-121.491543,
 94247,38.586431,-121.495039,
 94249,38.57302,-121.467357,
 94257,38.587116,-121.493274,
 94269,38.555479,-121.496541,
 94278,38.574262,-121.468927,
 94290,38.555426,-121.499265,
 94298,38.58402,-121.494416,
 94303,37.451731,-122.130646,
 94506,37.807861,-121.915558,
 94507,37.855573,-122.017563,
 94552,37.705049,-122.036158,
 94553,37.994483,-122.109566,
 94559,38.292036,-122.285601,
 94561,37.991442,-121.715325,
 94562,38.428074,-122.403836,
 94569,38.044526,-122.187291,
 94591,38.102778,-122.213239,
 94597,37.922373,-122.065418,
 94598,37.918431,-122.028774,
 94707,37.897001,-122.279618,
 94720,37.86681,-122.246241,
 94820,37.978266,-122.295281,
 94914,37.94739,-122.537057,
 94920,37.88768,-122.471218,
 94933,38.015968,-122.691503,
 94941,37.897139,-122.534153,
 94951,38.312366,-122.662118,
 94970,37.933345,-122.693406,
 94979,37.971976,-122.562039,
 95009,37.289052,-121.94796,
 95019,36.936421,-121.777929,
 95020,37.018412,-121.579487,
 90006,34.050543,-118.293382,
 90012,34.059839,-118.241398,
 90014,34.044264,-118.25293,
 90020,34.066334,-118.30184,
 90038,34.089538,-118.325421,
 90043,33.9866,-118.334118,
 90071,34.052139,-118.254478,
 90073,34.052501,-118.455227,
 90088,34.055128,-118.261962,
 90220,33.885471,-118.234502,
 90266,33.889682,-118.403523,
 90272,34.047777,-118.536568,
 90274,33.781234,-118.377564,
 90275,33.761525,-118.366585,
 90278,33.871165,-118.371558,
 90295,33.980879,-118.438136,
 90296,33.956096,-118.449853,
 90309,33.973424,-118.357069,
 90407,34.013225,-118.49306,
 90411,34.012451,-118.471282,
 90502,33.828383,-118.292625,
 90510,33.825599,-118.328416,
 90604,33.930586,-118.012583,
 90606,33.976755,-118.066551,
 90632,33.914328,-117.954717,
 90662,33.969412,-118.098484,
 90671,33.932507,-118.058491,
 90749,33.819146,-118.263108,
 90806,33.802156,-118.189288,
 90815,33.794324,-118.121927,
 90846,33.825962,-118.120925,
 91012,34.203774,-118.191187,
 91016,34.142966,-118.003934,
 91102,34.148314,-118.143097,
 91103,34.162881,-118.155699,
 91114,34.168363,-118.12644,
 91210,34.146097,-118.256012,
 91224,34.227961,-118.246396,
 91308,34.201111,-118.597222,
 91322,34.384669,-118.530023,
 91324,34.236947,-118.545183,
 91343,34.235658,-118.475661,
 91344,34.275497,-118.501397,
 91351,34.424187,-118.476832,
 91359,34.194443,-118.820014,
 91367,34.177999,-118.612744,
 91381,34.387324,-118.580131,
 91401,34.180193,-118.435047,
 91409,34.20356,-118.489767,
 91495,34.151111,-118.448333,
 91522,34.146904,-118.337574,
 91603,34.172067,-118.37692,
 91611,34.186474,-118.395745,
 91617,34.164995,-118.403562,
 91618,34.112736,-118.365832,
 91701,34.133411,-117.596887,
 91709,33.976734,-117.728488,
 91746,34.04629,-117.984722,
 91754,34.051721,-118.140017,
 91788,34.013703,-117.863721,
 91801,34.091683,-118.128735,
 91902,32.666466,-117.024326,
 91905,32.667023,-116.314087,
 91913,32.641154,-116.986645,
 91932,32.579116,-117.116965,
 91979,32.73352,-116.973098,
 91980,32.585716,-116.629051,
 92008,33.155512,-117.328985,
 92010,33.162112,-117.301337,
 92022,32.730955,-116.912661,
 92026,33.165158,-117.101573,
 92052,33.196976,-117.367059,
 92079,33.142655,-117.165619,
 92096,33.133957,-117.175047,
 92107,32.743814,-117.242552,
 92122,32.861699,-117.213272,
 92150,32.986294,-117.081364,
 92155,32.674947,-117.16083,
 92192,32.854108,-117.211801,
 92201,33.714432,-116.230695,
 92250,32.808536,-115.381277,
 92260,33.723082,-116.383103,
 92281,33.044082,-115.57773,
 92326,34.242853,-117.199485,
 92340,34.420224,-117.276583,
 92368,34.649177,-117.33757,
 92382,34.205506,-117.105941,
 92386,34.247333,-116.825202,
 92405,34.14117,-117.298291,
 92502,33.976846,-117.369982,
 92521,33.972585,-117.350361,
 92531,33.605257,-117.393897,
 92561,33.603046,-116.523276,
 92570,33.794484,-117.291731,
 92587,33.69043,-117.25287,
 92591,33.523463,-117.127809,
 92599,33.830356,-117.198023,
 92603,33.637335,-117.810126,
 92616,33.65193,-117.836104,
 92625,33.600351,-117.868129,
 92650,33.679458,-117.760857,
 92654,33.604203,-117.715359,
 92672,33.426708,-117.613281,
 92676,33.714267,-117.634921,
 95030,37.230053,-121.982855,
 95033,37.148614,-121.959684,
 95054,37.391766,-121.959692,
 95060,36.981608,-122.042791,
 95061,36.976735,-122.023603,
 95073,37.003866,-121.951905,
 95109,37.337284,-121.893454,
 95110,37.339178,-121.899773,
 95112,37.343437,-121.886071,
 95116,37.352246,-121.852495,
 95128,37.315807,-121.93599,
 95173,37.334594,-121.893325,
 95192,37.341891,-121.890214,
 95202,37.958831,-121.288727,
 95203,37.955388,-121.312269,
 95208,37.991732,-121.28667,
 95211,37.982119,-121.309791,
 95236,38.017945,-121.070035,
 95242,38.125877,-121.309208,
 95252,38.147712,-120.859346,
 95301,37.344994,-120.601917,
 95305,37.821336,-120.215805,
 95307,37.586011,-120.951198,
 95321,37.848153,-120.177449,
 95329,37.671606,-120.358134,
 95338,37.477433,-119.896543,
 95348,37.32568,-120.496859,
 95351,37.623739,-120.997617,
 95361,37.771911,-120.832816,
 95379,37.970088,-120.24037,
 95404,38.448355,-122.695046,
 95405,38.439211,-122.673745,
 95422,38.95627,-122.637098,
 95432,39.181789,-123.736562,
 95444,38.433527,-122.867874,
 95452,38.417166,-122.555245,
 95481,39.130128,-123.164095,
 95503,40.762613,-124.15783,
 95549,40.740243,-123.966911,
 95563,40.882541,-123.541231,
 95568,41.448184,-123.490887,
 95571,40.324624,-123.920032,
 95606,38.786867,-122.169932,
 95612,38.376826,-121.580081,
 95615,38.306712,-121.547535,
 95620,38.440922,-121.824284,
 95628,38.656485,-121.261242,
 95632,38.266221,-121.297698,
 95645,38.857192,-121.750385,
 95648,38.909906,-121.291363,
 95652,38.665178,-121.392109,
 95659,38.882765,-121.565623,
 95664,38.817074,-121.028449,
 95667,38.721362,-120.798596,
 95668,38.819096,-121.489094,
 95681,38.993781,-121.360408,
 95682,38.659748,-120.966041,
 95687,38.345264,-121.957769,
 95694,38.526019,-121.969517,
 95758,38.423196,-121.43561,
 95814,38.580184,-121.492542,
 95818,38.557576,-121.491679,
 95825,38.588926,-121.406888,
 95830,38.48694,-121.278351,
 95853,38.607305,-121.443172,
 95901,39.174031,-121.541115,
 95922,39.406594,-121.100451,
 95932,39.214446,-122.011366,
 95934,40.056901,-120.965213,
 95937,38.888464,-121.990452,
 95947,40.13885,-120.911572,
 95958,39.55186,-121.764881,
 95960,39.351442,-121.11476,
 95983,40.060809,-120.813164,
 95987,39.142481,-122.185697,
 95993,39.130528,-121.657265,
 96023,41.950278,-122.005051,
 96028,41.053116,-121.488005,
 96056,41.098429,-121.341991,
 96059,40.432007,-121.841661,
 96069,40.703246,-122.015872,
 96071,40.674872,-121.429849,
 96085,41.75913,-123.015446,
 96088,40.512053,-121.866206,
 96092,39.937714,-122.011977,
 96099,40.641465,-122.506104,
 96110,41.316969,-120.117312,
 96111,39.391046,-120.023279,
 96112,41.873979,-120.117673,
 96125,39.582938,-120.620635,
 96146,39.179901,-120.218104,
 90005,34.059242,-118.30282,
 90017,34.052293,-118.263953,
 90026,34.076341,-118.265438,
 90042,34.113598,-118.191414,
 90047,33.957873,-118.308768,
 90059,33.926225,-118.24947,
 90060,33.995744,-118.422017,
 90065,34.109122,-118.227017,
 90067,34.057931,-118.415374,
 90069,34.089981,-118.380338,
 90076,34.062531,-118.308835,
 90077,34.103678,-118.451144,
 90081,34.057006,-118.26656,
 90083,33.954859,-118.400826,
 90189,34.051596,-118.239035,
 90233,33.983732,-118.391412,
 90250,33.914008,-118.348424,
 92677,33.532134,-117.70127,
 92683,33.753205,-117.993023,
 92691,33.610915,-117.66756,
 92711,33.766854,-117.804349,
 92781,33.736867,-117.818051,
 92803,33.839709,-117.938825,
 92814,33.817347,-117.960729,
 92816,33.839215,-117.883541,
 92831,33.880416,-117.890383,
 92867,33.811078,-117.831213,
 92878,33.877915,-117.573483,
 92880,33.894722,-117.614109,
 92885,33.891091,-117.822191,
 93001,34.290397,-119.289617,
 93011,34.214664,-119.035591,
 93013,34.399506,-119.518298,
 93063,34.27862,-118.699699,
 93101,34.420969,-119.705379,
 93102,34.41961,-119.705543,
 93117,34.429976,-119.863785,
 93118,34.435471,-119.824927,
 93120,34.421042,-119.708474,
 93140,34.421908,-119.678834,
 93232,36.235654,-119.707191,
 93239,36.053047,-119.992219,
 93240,35.620825,-118.439394,
 93241,35.257328,-118.914292,
 93245,36.302198,-119.796961,
 93252,34.992262,-119.389299,
 93254,34.935537,-119.64775,
 93256,35.970889,-119.290288,
 93262,36.522184,-118.764889,
 93271,36.442725,-118.890801,
 93305,35.387082,-118.985107,
 93307,35.321671,-118.977841,
 93314,35.384532,-119.183905,
 93383,35.264987,-119.031953,
 93385,35.37911,-118.989648,
 93388,35.418862,-119.022933,
 93407,35.298873,-120.658799,
 93423,35.487398,-120.645262,
 93436,34.648637,-120.451033,
 93443,35.367194,-120.851678,
 93452,35.614543,-121.144305,
 93455,34.883641,-120.431459,
 93455,34.883641,-120.431459,
 93458,34.952621,-120.44763,
 93463,34.604471,-120.13356,
 93483,35.119166,-120.620876,
 93514,37.367,-118.421062,
 93518,35.388182,-118.46292,
 93526,36.809285,-118.204618,
 93527,35.705182,-117.836993,
 93534,34.688743,-118.149619,
 93541,38.00208,-119.06958,
 93551,34.605185,-118.183145,
 93563,34.414006,-117.779359,
 93591,34.597489,-117.844362,
 93601,37.383601,-119.725618,
 93602,37.072431,-119.451597,
 93615,36.515788,-119.285897,
 93619,36.886526,-119.608109,
 93623,37.448794,-119.650586,
 93624,36.395983,-120.129336,
 93628,36.783694,-118.915463,
 93631,36.507754,-119.551775,
 93639,36.964783,-120.084565,
 93646,36.624342,-119.337915,
 93652,36.597541,-119.902408,
 93701,36.749413,-119.788526,
 93723,36.787118,-119.940998,
 93777,36.751091,-119.79,
 93844,36.753633,-119.673434,
 93907,36.758825,-121.663893,
 93932,35.94837,-121.194481,
 93943,36.594523,-121.874251,
 94010,37.576644,-122.361549,
 94016,37.707328,-122.454928,
 94017,37.688779,-122.468923,
 94022,37.380725,-122.125818,
 94043,37.404815,-122.077063,
 94044,37.623304,-122.485233,
 94087,37.3505,-122.034465,
 94102,37.781369,-122.416317,
 94120,37.793768,-122.402158,
 94126,37.791853,-122.390378,
 94132,37.720314,-122.479705,
 94151,37.793488,-122.40018,
 94207,38.581693,-121.488693,
 94229,38.587116,-121.495126,
 94274,38.586449,-121.494078,
 94283,38.477355,-121.444157,
 94286,38.554006,-121.49814,
 94401,37.571321,-122.325274,
 94510,38.065456,-122.157704,
 94526,37.814999,-121.986949,
 94527,37.976622,-122.056397,
 94533,38.26582,-122.030857,
 94535,38.276188,-121.942643,
 94537,37.555694,-122.017336,
 94568,37.713703,-121.920509,
 94575,37.845244,-122.122691,
 94582,37.772571,-121.941698,
 94585,38.237556,-122.003595,
 94585,38.237556,-122.003595,
 94590,38.104645,-122.248014,
 94595,37.873943,-122.071471,
 94610,37.812326,-122.247908,
 90255,33.979287,-118.218005,
 90264,34.043513,-118.771042,
 90275,33.761525,-118.366585,
 90294,33.986206,-118.468275,
 90303,33.93716,-118.332737,
 90405,34.009977,-118.47295,
 90505,33.811934,-118.347711,
 90607,33.959614,-118.026554,
 90609,33.981609,-118.030546,
 90610,33.969836,-118.071934,
 90623,33.851111,-118.047555,
 90637,33.897095,-118.002372,
 90706,33.885639,-118.128005,
 90714,33.851492,-118.136024,
 90720,33.797906,-118.069949,
 90742,33.718777,-118.069914,
 90746,33.858039,-118.258553,
 90748,33.784149,-118.263982,
 90755,33.800665,-118.167672,
 90803,33.762141,-118.136089,
 90805,33.862452,-118.179735,
 90809,33.762376,-118.121919,
 90822,33.80355,-118.148606,
 90832,33.765894,-118.198595,
 90853,33.7604,-118.132702,
 91001,34.191213,-118.140064,
 91003,34.185055,-118.130218,
 91025,34.157498,-118.051198,
 91030,34.11167,-118.154211,
 91031,34.117536,-118.151757,
 91077,34.12539,-118.05468,
 91107,34.150419,-118.091542,
 91199,34.109919,-118.125578,
 91201,34.169609,-118.291869,
 91331,34.258258,-118.419235,
 91331,34.258258,-118.419235,
 91340,34.285675,-118.437931,
 91371,34.181136,-118.570613,
 91376,34.140438,-118.751567,
 91384,34.473237,-118.639861,
 91502,34.175454,-118.306718,
 91506,34.171316,-118.323082,
 91507,34.168685,-118.347797,
 91614,34.144523,-118.393815,
 91615,34.200891,-118.394821,
 91706,34.084591,-117.968444,
 91709,33.976734,-117.728488,
 91716,34.003756,-117.974564,
 91732,34.0727,-118.015513,
 91744,34.030588,-117.940427,
 91752,33.999882,-117.526841,
 91755,34.054575,-118.116597,
 91762,34.057888,-117.665151,
 91768,34.066268,-117.774369,
 91776,34.089225,-118.097254,
 91780,34.101579,-118.053453,
 91785,34.10076,-117.647655,
 91793,34.067473,-117.927759,
 91802,34.090903,-118.124015,
 91921,32.656547,-116.95907,
 91934,32.632732,-116.224485,
 91942,32.782263,-117.019836,
 91945,32.736472,-117.032787,
 92003,33.286762,-117.203569,
 92004,33.155677,-116.203738,
 92007,33.024888,-117.276028,
 92021,32.817267,-116.9227,
 92036,33.021575,-116.493326,
 92038,32.853445,-117.251737,
 92058,33.232035,-117.352855,
 92060,33.336039,-116.799561,
 92106,32.728183,-117.230253,
 92108,32.776184,-117.135333,
 92119,32.802666,-117.028487,
 92120,32.792432,-117.073714,
 92128,33.002892,-117.070611,
 92129,32.966785,-117.11424,
 92132,32.719559,-117.166765,
 92162,0,0,
 92163,32.747287,-117.171093,
 92166,32.72166,-117.231158,
 92167,32.746726,-117.244389,
 92172,32.96459,-117.136931,
 92173,32.558966,-117.052827,
 92199,32.980136,-117.082337,
 92222,32.792963,-114.555993,
 92225,33.606357,-114.613948,
 92225,33.606357,-114.613948,
 92231,32.679627,-115.502166,
 92256,34.067038,-116.561779,
 92258,33.922919,-116.549446,
 92274,33.519127,-116.111242,
 92275,33.640389,-116.141879,
 92286,34.184966,-116.406627,
 92311,34.886729,-117.038967,
 92324,34.063367,-117.319454,
 92334,34.07503,-117.469021,
 92339,34.086193,-116.920002,
 92371,34.446495,-117.541674,
 92401,34.107708,-117.290611,
 92402,34.078958,-117.462404,
 92414,0,0,
 92501,33.991342,-117.371373,
 92518,33.890561,-117.27299,
 92519,33.99548,-117.41344,
 92556,33.965493,-117.249439,
 94610,37.812326,-122.247908,
 94802,37.937113,-122.356577,
 94808,37.935999,-122.341431,
 94903,38.012862,-122.544515,
 94937,38.109817,-122.890269,
 94950,38.043331,-122.770535,
 94972,38.297258,-122.941962,
 95001,36.980421,-121.898405,
 95004,36.877378,-121.621244,
 95004,36.877378,-121.621244,
 95024,36.842897,-121.393538,
 95035,37.434811,-121.895596,
 95038,37.08552,-121.6098,
 95064,36.989133,-122.057234,
 95065,37.006756,-121.983791,
 95070,37.271359,-122.021681,
 95076,36.926967,-121.765861,
 95103,37.341165,-121.888307,
 95136,37.270012,-121.85045,
 95139,37.225484,-121.767755,
 95148,37.329692,-121.791729,
 95150,37.289036,-121.914383,
 95159,37.31679,-121.932386,
 95172,37.333829,-121.885149,
 95190,37.376143,-121.90232,
 95193,37.244015,-121.830989,
 95196,37.330413,-121.891128,
 95215,37.962593,-121.202568,
 95220,38.196598,-121.222264,
 95232,38.356683,-120.584827,
 95240,38.124157,-121.262433,
 95246,38.243919,-120.523528,
 95296,38.025975,-121.297271,
 95297,37.970844,-121.30788,
 95309,37.863817,-120.440744,
 95314,0,0,
 95322,37.207175,-121.012225,
 95346,38.072455,-120.17174,
 95347,37.78907,-120.306245,
 95353,37.665412,-120.944142,
 95355,37.671003,-120.951399,
 95385,37.613096,-121.256133,
 95409,38.460152,-122.642151,
 95412,38.714225,-123.366386,
 95417,39.660374,-123.64079,
 95418,39.15132,-123.2088,
 95423,39.053774,-122.623395,
 95439,38.489122,-122.775991,
 95443,39.038635,-122.759217,
 95450,38.531419,-123.251964,
 95465,38.400666,-122.971066,
 95469,39.333488,-123.106975,
 95470,39.274743,-123.210667,
 95486,38.47422,-123.0351,
 95519,40.946346,-124.085944,
 95521,40.87468,-124.083943,
 95525,40.985625,-123.882638,
 95526,40.478364,-123.641996,
 95543,41.842012,-123.991955,
 95546,41.168795,-123.727286,
 95551,40.662605,-124.220189,
 95552,40.319817,-123.372988,
 95560,40.122187,-123.872589,
 95602,38.98212,-121.090313,
 95602,38.98212,-121.090313,
 95604,38.90292,-121.06698,
 95608,38.62795,-121.330887,
 95618,38.551866,-121.709291,
 95626,38.719783,-121.436356,
 95631,39.000594,-120.865614,
 95634,38.926349,-120.77574,
 95640,38.316201,-120.943944,
 95645,38.857192,-121.750385,
 95654,38.366807,-120.794619,
 95663,38.852603,-121.176464,
 95666,38.460497,-120.537484,
 95671,38.676709,-121.147373,
 95674,38.962184,-121.496274,
 95677,38.788918,-121.236913,
 95683,38.500285,-121.097193,
 95692,39.034659,-121.408917,
 95695,38.67541,-121.792992,
 95715,39.27048,-120.6162,
 95720,38.757517,-120.199076,
 95726,38.747704,-120.588454,
 95811,38.575617,-121.486425,
 95823,38.477921,-121.442487,
 95826,38.554176,-121.378388,
 95827,38.56596,-121.329242,
 95833,38.615103,-121.504048,
 95840,38.583712,-121.490234,
 95843,38.716625,-121.366364,
 95860,38.608329,-121.381689,
 95914,39.433223,-121.359915,
 95914,39.433223,-121.359915,
 95917,39.414197,-121.680902,
 95929,34.165628,-109.999156,
 95955,39.276388,-122.132647,
 95960,39.351442,-121.11476,
 95962,39.364106,-121.279919,
 95963,39.751231,-122.186538,
 95973,39.787232,-121.864001,
 96007,40.457058,-122.330121,
 96008,40.702246,-122.136754,
 96009,41.121327,-121.137406,
 96010,40.9122,-123.256187,
 96016,40.933065,-121.564957,
 96020,40.241435,-121.208571,
 96031,41.224614,-123.262993,
 96040,40.788638,-121.487776,
 96041,40.51188,-123.2358,
 92567,33.807045,-117.123656,
 92582,33.786577,-116.983691,
 92604,33.688154,-117.78887,
 92648,33.675735,-117.999357,
 92658,33.642217,-117.863051,
 92685,33.752811,-117.995095,
 92701,33.748168,-117.860964,
 92812,33.818015,-117.927842,
 92821,33.92233,-117.891816,
 92822,33.917517,-117.890248,
 92833,33.872404,-117.962971,
 92836,33.875484,-117.903814,
 92862,33.791502,-117.714005,
 92867,33.811078,-117.831213,
 93107,34.421154,-119.858056,
 93130,34.441228,-119.735418,
 93199,34.489743,-120.039532,
 93212,36.09658,-119.567555,
 91496,34.163186,-118.456615,
 91607,34.166196,-118.399683,
 91612,34.186548,-118.396887,
 91722,34.097562,-117.904872,
 91745,33.99786,-117.966813,
 91750,34.116964,-117.770071,
 91764,34.07603,-117.618696,
 91769,34.061362,-117.75682,
 91792,34.02208,-117.899846,
 91896,34.092513,-118.128483,
 91911,32.607076,-117.062851,
 91912,32.639988,-117.080648,
 91916,32.869786,-116.624756,
 91931,32.849587,-116.555021,
 91950,32.672329,-117.092295,
 92023,33.034774,-117.293255,
 92025,33.111045,-117.070835,
 92028,33.369941,-117.222978,
 92051,33.201512,-117.370224,
 92057,33.237793,-117.303923,
 92065,33.031972,-116.862214,
 92066,33.213945,-116.527764,
 92068,33.276757,-117.272701,
 92078,33.131878,-117.190569,
 92091,32.997787,-117.21133,
 92115,32.758729,-117.072268,
 92117,32.820341,-117.199229,
 92118,32.680714,-117.173002,
 92139,32.680322,-117.048587,
 92152,32.691593,-117.247143,
 92169,32.799866,-117.25117,
 92190,32.78315,-117.09451,
 92197,32.831074,-117.199135,
 92203,33.746656,-116.279037,
 92261,33.617682,-116.430261,
 92280,34.191918,-114.553587,
 92285,34.303601,-116.454275,
 92320,33.995855,-117.06852,
 92341,34.241861,-117.075564,
 92345,34.42076,-117.300747,
 92358,34.249854,-117.497856,
 92375,34.062806,-117.195587,
 92398,34.909791,-116.809901,
 92399,34.029516,-117.054383,
 92418,34.104145,-117.290746,
 92504,33.928719,-117.411266,
 92507,33.976776,-117.337782,
 92539,33.533846,-116.667806,
 92544,33.722533,-116.921061,
 92554,33.914803,-117.251101,
 92564,33.641779,-117.186255,
 92571,33.815109,-117.217643,
 92602,33.732174,-117.772165,
 92606,33.69785,-117.81091,
 92607,33.526852,-117.711714,
 92626,33.679429,-117.905407,
 92651,33.534783,-117.771944,
 92688,33.640669,-117.602546,
 92693,33.497713,-117.665115,
 92697,33.563824,-117.658733,
 92728,33.713991,-117.928354,
 92799,33.696018,-117.909126,
 92815,33.831943,-117.912104,
 92840,33.785636,-117.931255,
 92842,33.778341,-117.94558,
 92850,33.844215,-117.955546,
 92866,33.784592,-117.845622,
 92881,33.84166,-117.541956,
 92886,33.888393,-117.805978,
 93023,34.446733,-119.258844,
 93031,34.220474,-119.181244,
 93035,34.183369,-119.223312,
 93060,34.351337,-119.080927,
 93121,34.419234,-119.709176,
 93204,36.004767,-120.131007,
 93210,36.14728,-120.358404,
 93222,34.849137,-119.167008,
 93223,36.301628,-119.207177,
 93238,35.748231,-118.42208,
 93249,35.691267,-119.839547,
 93263,35.495958,-119.281252,
 93268,35.149767,-119.454043,
 93290,36.328598,-119.293861,
 93408,35.222175,-120.637046,
 93422,35.476028,-120.666495,
 93430,35.444991,-120.885801,
 93435,35.512903,-121.008442,
 93460,34.639073,-120.072031,
 93461,35.666828,-120.287803,
 96050,41.838916,-122.935069,
 96055,40.056045,-122.101117,
 96056,41.098429,-121.341991,
 96058,41.740833,-121.954514,
 96091,40.852123,-122.863534,
 96097,41.719384,-122.635403,
 96101,41.488677,-120.546398,
 96109,39.991447,-120.086535,
 96123,40.870327,-120.148171,
 96142,39.063924,-120.138469,
 97635,42.052488,-120.234489,
 90008,34.010973,-118.342465,
 90018,34.030649,-118.316447,
 90031,34.077578,-118.213541,
 90035,34.053956,-118.384727,
 90036,34.068479,-118.351087,
 90040,33.995674,-118.153228,
 90044,33.953392,-118.291976,
 90055,34.047536,-118.256556,
 90066,34.002367,-118.429585,
 90070,34.06244,-118.310436,
 90074,34.052583,-118.26801,
 90086,34.066364,-118.239719,
 90090,34.013223,-118.138227,
 90210,34.086773,-118.405454,
 90211,34.065956,-118.381739,
 90221,33.894946,-118.204956,
 90221,33.894946,-118.204956,
 90239,33.932418,-118.112837,
 90248,33.874577,-118.289068,
 90265,34.038645,-118.76262,
 90274,33.781234,-118.377564,
 90277,33.829367,-118.384825,
 90312,33.960629,-118.350216,
 90406,34.018176,-118.497198,
 90410,34.014649,-118.4674,
 90601,33.995141,-118.041001,
 90603,33.942702,-117.98969,
 90638,33.905845,-118.007666,
 90638,33.905845,-118.007666,
 90712,33.849354,-118.146602,
 90744,33.783981,-118.262519,
 90745,33.827091,-118.269185,
 90747,33.867058,-118.255833,
 90804,33.781807,-118.151482,
 90805,33.862452,-118.179735,
 90813,33.781213,-118.188302,
 90831,33.77041,-118.200783,
 90844,33.776755,-118.191618,
 91006,34.132218,-118.025122,
 91009,34.139758,-117.967298,
 91046,34.209793,-118.241838,
 91108,34.12145,-118.113536,
 91117,34.14702,-118.092722,
 91126,34.136757,-118.125896,
 91129,34.141146,-118.156851,
 91203,34.152995,-118.261495,
 91206,34.154173,-118.236379,
 91313,34.239477,-118.588495,
 91352,34.225529,-118.376933,
 91355,34.411906,-118.563248,
 91390,34.507498,-118.401842,
 91395,34.253953,-118.464623,
 91406,34.200229,-118.487043,
 91410,34.203639,-118.492923,
 91411,34.178515,-118.458892,
 91413,34.164355,-118.458352,
 91423,34.153569,-118.432992,
 91436,34.153782,-118.488931,
 91501,34.185731,-118.301863,
 91526,34.190452,-118.325901,
 91602,34.151874,-118.368687,
 91602,34.151874,-118.368687,
 91606,34.186131,-118.38727,
 91616,34.184197,-118.396049,
 91706,34.084591,-117.968444,
 91711,34.108863,-117.719043,
 91714,34.019446,-117.957126,
 91715,34.015728,-117.969965,
 91729,34.098356,-117.563036,
 91731,34.078308,-118.04001,
 91733,34.054424,-118.046676,
 91739,34.131517,-117.52418,
 91740,34.118188,-117.855234,
 91748,33.983863,-117.901088,
 91761,34.034422,-117.61113,
 91784,34.136993,-117.661807,
 91786,34.101686,-117.662335,
 91789,34.015699,-117.857809,
 91943,32.777819,-117.010222,
 91948,32.871478,-116.415376,
 91963,32.622533,-116.612759,
 91977,32.727172,-116.997401,
 91978,32.733934,-116.958265,
 92013,33.161398,-117.349689,
 92029,33.094576,-117.109749,
 92046,33.125918,-117.101637,
 92055,33.291239,-117.301241,
 92074,32.957495,-117.034928,
 92105,32.740972,-117.094812,
 92110,32.761579,-117.201761,
 92112,32.725903,-117.16462,
 92127,33.018834,-117.090621,
 92135,32.699246,-117.185174,
 92154,32.574857,-117.059642,
 92177,32.823966,-117.198462,
 93501,35.021224,-118.169134,
 93502,35.055697,-118.175526,
 93543,34.529682,-117.956865,
 93586,34.648854,-118.219319,
 93599,34.550781,-117.707276,
 93603,36.639051,-118.989741,
 93609,36.535396,-119.842256,
 93614,37.218307,-119.729671,
 93620,37.007613,-120.62718,
 93635,37.059941,-120.84633,
 93636,36.949368,-119.884447,
 93648,36.611997,-119.537415,
 93653,37.223128,-119.888528,
 93660,36.604676,-120.173292,
 93702,36.73954,-119.753167,
 93712,36.610955,-119.773998,
 93722,36.802256,-119.871898,
 93728,36.758137,-119.813207,
 93774,36.748057,-119.788731,
 93779,36.747859,-119.791661,
 93794,36.787969,-119.829498,
 93927,36.316276,-121.259708,
 93930,36.197914,-121.132842,
 94015,37.681127,-122.475898,
 94060,37.225907,-122.358086,
 94062,37.454679,-122.257858,
 94062,37.454679,-122.257858,
 94062,37.454679,-122.257858,
 94103,37.774468,-122.412331,
 94110,37.752446,-122.41773,
 94114,37.759175,-122.435422,
 94115,37.785673,-122.435991,
 94128,37.635517,-122.394669,
 94144,37.783348,-122.459783,
 94145,37.794247,-122.400377,
 94147,37.800828,-122.434822,
 94159,37.784023,-122.453299,
 94235,38.584467,-121.495247,
 94240,38.585287,-121.494786,
 94256,38.583585,-121.494299,
 94263,38.585076,-121.491659,
 94267,38.582798,-121.490569,
 94279,38.585681,-121.494555,
 94288,38.582186,-121.492888,
 94295,38.584072,-121.493284,
 94303,37.451731,-122.130646,
 94306,37.418581,-122.130014,
 94402,37.551763,-122.324931,
 94503,38.170944,-122.252376,
 94505,37.900085,-121.605539,
 94521,37.957573,-121.973626,
 94538,37.533324,-121.970488,
 94539,37.516343,-121.928674,
 94540,37.658815,-122.095048,
 94542,37.658687,-122.049954,
 94550,37.672602,-121.758554,
 94556,37.845836,-122.126263,
 94563,37.880517,-122.175825,
 94565,38.016874,-121.909117,
 94566,37.662337,-121.871795,
 94579,37.687879,-122.152302,
 94587,37.590948,-122.04653,
 94602,37.801464,-122.211677,
 94605,37.763956,-122.162114,
 94608,37.836907,-122.284673,
 94613,37.780653,-122.187352,
 94649,37.806936,-122.263828,
 94707,37.897001,-122.279618,
 94708,37.893213,-122.261997,
 94804,37.926231,-122.337569,
 94805,37.941063,-122.32503,
 94901,37.971726,-122.517259,
 94922,38.355519,-122.936728,
 94923,38.363437,-123.068863,
 94940,38.19502,-122.891188,
 94955,38.222372,-122.556183,
 94999,38.267466,-122.658097,
 95011,37.29502,-121.960662,
 95021,37.01446,-121.549589,
 95026,37.155014,-121.982515,
 95037,37.127862,-121.648647,
 95052,37.355841,-121.953674,
 95076,36.926967,-121.765861,
 95106,37.33854,-121.891619,
 95120,37.217097,-121.861641,
 95123,37.246281,-121.8357,
 95127,37.369001,-121.822987,
 95129,37.308301,-121.997195,
 95131,37.387084,-121.889575,
 95140,37.368684,-121.757577,
 95152,37.417403,-121.820034,
 95158,37.259318,-121.876807,
 95170,37.31175,-122.009013,
 95230,37.950175,-120.916757,
 95245,38.303738,-120.584651,
 95248,38.315924,-120.516711,
 95250,0,0,
 95254,38.201703,-120.973511,
 95267,38.003825,-121.319038,
 95312,37.397581,-120.618353,
 95316,37.538621,-120.791722,
 95327,37.942537,-120.427662,
 95341,37.283073,-120.478902,
 95345,37.562347,-119.962353,
 95360,37.315462,-121.023298,
 95364,38.32073,-119.823875,
 95366,37.746226,-121.127959,
 95383,38.0403,-120.22917,
 92184,0,0,
 92191,32.904114,-117.21699,
 92193,32.800654,-117.141627,
 92195,32.744302,-117.050496,
 92211,33.756473,-116.320482,
 92223,33.950446,-116.97153,
 92227,32.97966,-115.534103,
 92235,33.780606,-116.461273,
 92236,33.676182,-116.181162,
 92252,34.156239,-116.30622,
 92253,33.681283,-116.296505,
 92262,33.842253,-116.53836,
 92268,34.156882,-116.497218,
 92304,34.634003,-115.751436,
 92305,34.170114,-116.873403,
 92313,34.031483,-117.320017,
 92324,34.063367,-117.319454,
 92344,34.394526,-117.399878,
 92352,34.257718,-117.190169,
 92354,34.051844,-117.253149,
 92363,34.835461,-114.609588,
 92373,34.042805,-117.18754,
 92373,34.042805,-117.18754,
 92393,34.483066,-117.312486,
 92408,34.078456,-117.275101,
 92415,34.127706,-117.266443,
 92424,0,0,
 92503,33.913444,-117.459469,
 92508,33.891398,-117.323501,
 92516,33.953169,-117.394835,
 92517,33.964237,-117.432566,
 92518,33.890561,-117.27299,
 92532,33.699578,-117.328881,
 92549,33.735886,-116.693711,
 92553,33.923256,-117.241733,
 92581,33.784708,-116.959911,
 92583,33.790681,-116.959195,
 92587,33.69043,-117.25287,
 92612,33.666579,-117.835963,
 92624,33.461285,-117.667865,
 92630,33.640545,-117.688685,
 92637,33.608202,-117.721298,
 92649,33.720035,-118.044644,
 92661,33.602842,-117.902078,
 92673,33.460613,-117.631347,
 92678,33.664297,-117.589602,
 92692,33.61312,-117.643453,
 92703,33.747396,-117.905206,
 92706,33.764666,-117.880698,
 92712,33.74962,-117.874983,
 92806,33.838795,-117.873424,
 92834,33.874116,-117.902634,
 92838,33.893354,-117.931038,
 92857,33.831695,-117.849144,
 92864,33.814252,-117.830751,
 92870,33.879297,-117.856505,
 92877,33.875817,-117.567292,
 93006,34.279885,-119.291934,
 93009,34.266232,-119.209181,
 93012,34.2239,-118.986472,
 93014,34.392417,-119.512519,
 93030,34.202824,-119.176976,
 93036,34.228731,-119.175968,
 93041,34.155698,-119.184962,
 93043,34.16239,-119.201182,
 93044,34.154211,-119.187956,
 93065,34.265193,-118.77787,
 93105,34.442527,-119.738238,
 93109,34.403957,-119.718376,
 93206,35.424877,-119.475932,
 93207,35.907677,-118.723924,
 93225,34.821453,-119.054581,
 93227,36.344771,-119.410988,
 93270,35.956635,-119.034135,
 93302,35.375349,-119.021889,
 93311,35.318452,-119.110448,
 93313,35.278579,-119.055851,
 93390,35.356413,-119.002285,
 93406,35.246254,-120.639327,
 93410,35.276728,-120.737489,
 93412,35.31168,-120.83478,
 93429,34.836982,-120.530949,
 93437,34.746715,-120.522437,
 93448,35.155278,-120.671389,
 93453,35.359095,-120.371314,
 93464,34.554223,-120.141779,
 93475,35.10163,-120.611837,
 93505,35.125138,-117.970073,
 93514,37.367,-118.421062,
 93514,37.367,-118.421062,
 93515,37.360144,-118.401003,
 93519,35.305573,-117.953568,
 93522,35.627473,-117.670413,
 93530,36.488465,-117.872813,
 93550,34.566937,-118.096192,
 93552,34.559776,-118.039634,
 93554,35.375287,-117.66437,
 93608,36.524347,-120.367917,
 93612,36.81371,-119.711337,
 93620,37.007613,-120.62718,
 93622,36.83368,-120.515935,
 93623,37.448794,-119.650586,
 93630,36.73811,-120.072421,
 93634,37.25298,-119.1738,
 93637,36.940109,-120.102641,
 93641,36.68917,-119.041302,
 93653,37.223128,-119.888528,
 93654,36.606403,-119.441896,
 95403,38.478613,-122.747741,
 95406,38.459917,-122.727704,
 95415,39.01649,-123.381179,
 95419,38.426039,-122.958796,
 95426,38.840193,-122.723858,
 95435,39.005524,-122.870799,
 95446,38.503156,-122.995495,
 95461,38.788018,-122.650012,
 95466,39.109488,-123.516988,
 95467,38.805394,-122.554797,
 95482,39.150103,-123.204801,
 95487,38.251972,-122.453982,
 95493,39.186074,-122.965734,
 95501,40.793952,-124.158893,
 95524,40.83134,-124.05716,
 95526,40.478364,-123.641996,
 95531,41.78064,-124.176085,
 95543,41.842012,-123.991955,
 95555,41.286807,-124.06995,
 95562,40.499257,-124.106481,
 95573,40.953614,-123.648588,
 95603,38.912373,-121.080785,
 95619,38.688362,-120.815003,
 95627,38.697426,-122.02304,
 95629,38.511429,-120.704563,
 95629,38.511429,-120.704563,
 95662,38.682084,-121.222527,
 95670,38.604255,-121.282982,
 95673,38.690046,-121.448123,
 95675,38.545897,-120.74125,
 95680,38.238604,-121.560075,
 95690,38.235446,-121.561263,
 95692,39.034659,-121.408917,
 95693,38.405164,-121.22052,
 95694,38.526019,-121.969517,
 95703,38.991696,-121.001242,
 95717,39.164539,-120.859208,
 95724,39.31038,-120.43722,
 95728,39.320782,-120.408004,
 95741,38.588819,-121.300677,
 95742,38.593695,-121.251793,
 95746,38.743817,-121.186041,
 95757,38.389659,-121.438616,
 95815,38.610801,-121.443295,
 95887,38.616828,-121.367952,
 95899,38.580708,-121.526563,
 95912,38.985879,-122.049893,
 95913,39.729068,-122.144526,
 95915,40.006111,-121.248056,
 95925,39.495306,-121.215637,
 95941,39.515197,-121.259303,
 95948,39.354961,-121.693359,
 95949,39.121537,-121.083317,
 95951,39.740852,-122.011595,
 95957,39.10965,-121.875485,
 95966,39.488524,-121.488029,
 95967,39.742569,-121.604533,
 95970,39.436035,-122.031266,
 95975,39.225842,-121.154522,
 95982,39.163005,-121.763871,
 95986,39.35351,-120.777281,
 95992,39.0236,-121.607036,
 96037,41.549707,-122.91058,
 96059,40.432007,-121.841661,
 96076,40.337583,-122.886288,
 96089,40.683097,-122.400465,
 96094,41.462396,-122.383367,
 96121,40.186733,-120.399033,
 96143,39.258133,-120.036587,
 90003,33.963655,-118.274475,
 90023,34.023571,-118.203275,
 90029,34.090318,-118.295268,
 90032,34.081271,-118.177115,
 90039,34.109703,-118.261086,
 90040,33.995674,-118.153228,
 90048,34.073417,-118.375398,
 90048,34.073417,-118.375398,
 90051,34.062744,-118.24314,
 90068,34.116801,-118.332846,
 90094,33.972847,-118.430329,
 90212,34.063873,-118.400423,
 90251,33.916941,-118.359436,
 90305,33.957633,-118.328838,
 90306,33.960821,-118.35013,
 90311,33.95731,-118.358381,
 90401,34.017564,-118.493163,
 90409,34.003022,-118.485621,
 90501,33.827312,-118.314152,
 90507,33.831799,-118.318215,
 90508,33.834595,-118.315387,
 90509,33.844351,-118.328784,
 90602,33.970253,-118.034992,
 90608,33.979318,-118.03053,
 90620,33.841438,-118.014497,
 90630,33.820152,-118.041036,
 90631,33.932025,-117.951138,
 90650,33.905402,-118.082195,
 90720,33.797906,-118.069949,
 90723,33.895935,-118.162665,
 90731,33.73242,-118.291574,
 90732,33.736916,-118.315064,
 90807,33.830481,-118.183581,
 90833,33.766363,-118.203087,
 90834,33.770162,-118.203615,
 90848,33.830348,-118.184925,
 91010,34.137196,-117.966422,
 91040,34.260286,-118.322509,
 91043,34.252009,-118.292791,
 91110,34.155939,-118.154292,
 93718,36.734971,-119.782302,
 93720,36.856456,-119.76171,
 93721,36.735583,-119.784849,
 93760,36.735811,-119.778758,
 93792,36.781298,-119.827169,
 93901,36.667384,-121.657107,
 93912,36.738648,-121.68159,
 93921,36.562001,-121.896409,
 93930,36.197914,-121.132842,
 93933,36.681761,-121.792829,
 93940,36.59452,-121.87919,
 93954,36.124304,-121.021144,
 94010,37.576644,-122.361549,
 94014,37.696761,-122.455654,
 94024,37.353199,-122.08738,
 94028,37.380289,-122.21186,
 94035,37.412894,-122.049891,
 94042,37.410772,-122.087316,
 94061,37.46438,-122.231154,
 94066,37.624327,-122.426473,
 94089,37.401888,-122.005862,
 94111,37.79575,-122.400894,
 94112,37.720434,-122.44197,
 94137,38.935456,-94.545482,
 94141,37.766839,-122.408909,
 94146,37.760148,-122.433279,
 94211,38.586276,-121.495459,
 94246,38.584235,-121.492266,
 94254,38.58508,-121.491972,
 94261,38.584987,-121.493673,
 94280,38.582315,-121.494471,
 94282,38.584515,-121.49449,
 94287,38.585797,-121.493535,
 94294,38.556446,-121.494212,
 94303,37.451731,-122.130646,
 94502,37.736906,-122.242692,
 94503,38.170944,-122.252376,
 94515,38.58432,-122.591111,
 94515,38.58432,-122.591111,
 94522,38.01535,-122.023314,
 94524,37.973586,-122.05763,
 94529,37.874619,-122.047244,
 94534,38.252271,-122.098785,
 94553,37.994483,-122.109566,
 94557,37.629876,-122.103025,
 94564,37.997851,-122.290667,
 94571,38.163103,-121.704176,
 94573,38.45792,-122.413366,
 94576,38.552188,-122.473309,
 94589,38.139664,-122.245402,
 94590,38.104645,-122.248014,
 94592,38.100016,-122.274761,
 94596,37.895389,-122.053834,
 94603,37.739734,-122.17255,
 94604,37.80126,-122.265751,
 94608,37.836907,-122.284673,
 94612,37.807835,-122.269015,
 94615,37.806527,-122.29968,
 94619,37.788721,-122.189605,
 94620,37.77757,-122.214747,
 94624,37.747304,-122.172356,
 94701,37.869905,-122.270672,
 94706,37.889931,-122.295558,
 94707,37.897001,-122.279618,
 94708,37.893213,-122.261997,
 94803,37.969738,-122.294483,
 94904,37.948659,-122.532682,
 94904,37.948659,-122.532682,
 94915,37.959899,-122.504023,
 94920,37.88768,-122.471218,
 94942,37.904574,-122.522903,
 94949,38.063055,-122.537936,
 94954,38.252646,-122.621702,
 94965,37.860348,-122.497069,
 94966,37.865865,-122.496891,
 95018,37.064394,-122.064343,
 95023,36.851692,-121.389412,
 95032,37.24143,-121.958861,
 95045,36.853206,-121.543367,
 95046,37.08906,-121.597893,
 95118,37.255162,-121.889781,
 95125,37.296705,-121.895949,
 95153,37.248008,-121.845139,
 95154,37.261661,-121.912816,
 95194,37.343655,-121.881178,
 95222,38.067216,-120.608844,
 95253,38.139786,-121.205269,
 95255,38.399625,-120.516875,
 95269,38.018991,-121.322247,
 95320,37.798984,-121.001028,
 95330,37.820031,-121.285064,
 95335,38.154069,-120.059317,
 95343,37.293701,-120.487843,
 93661,37.108668,-120.597447,
 93673,36.455162,-119.485438,
 93709,36.731597,-119.784692,
 95344,37.377754,-120.613757,
 95354,37.642584,-120.971874,
 95376,37.739966,-121.433513,
 95410,39.208502,-123.723288,
 95416,38.312407,-122.482861,
 95421,38.531117,-123.138335,
 95425,38.797009,-123.011344,
 95429,39.715555,-123.345034,
 95433,38.299964,-122.489265,
 95460,39.319573,-123.78422,
 95471,38.52657,-122.980198,
 91121,34.149921,-118.088599,
 91125,34.13972,-118.122903,
 91188,34.151026,-118.143944,
 91189,34.12407,-118.164542,
 91202,34.163989,-118.26489,
 91204,34.136062,-118.260321,
 91222,34.15922,-118.262561,
 91226,34.160034,-118.213223,
 91303,34.197605,-118.600075,
 91304,34.22228,-118.612343,
 91334,34.244284,-118.426018,
 91335,34.199573,-118.54033,
 91337,34.202639,-118.534607,
 91342,34.305268,-118.437623,
 91353,34.217534,-118.367514,
 91358,34.178907,-118.874405,
 91360,34.201614,-118.876128,
 91361,34.149652,-118.834479,
 91362,34.181032,-118.825585,
 91382,34.412894,-118.510726,
 91387,34.417775,-118.436468,
 91392,34.310015,-118.431906,
 91393,34.230541,-118.466992,
 91404,34.177503,-118.43194,
 91408,34.175689,-118.430158,
 91426,34.155006,-118.515946,
 91505,34.166848,-118.344104,
 91510,34.173285,-118.345911,
 91521,34.154869,-118.326276,
 91608,34.135537,-118.352321,
 91708,33.957941,-117.643518,
 91710,34.019106,-117.691385,
 91723,34.084715,-117.886205,
 91724,34.091759,-117.858785,
 91734,34.071829,-118.033314,
 91746,34.04629,-117.984722,
 91756,34.047565,-118.132799,
 91763,34.070858,-117.700887,
 91766,34.044219,-117.753594,
 91767,34.082025,-117.738468,
 91903,32.832775,-116.762806,
 91917,32.617894,-116.727002,
 91935,32.718099,-116.814862,
 91941,32.762349,-117.012445,
 92024,33.052937,-117.27074,
 92033,33.121068,-117.086889,
 92037,32.846157,-117.252953,
 92054,33.193785,-117.361431,
 92061,33.312895,-116.98393,
 92064,32.973411,-117.040272,
 92069,33.150615,-117.15705,
 92082,33.250868,-117.031411,
 92092,32.876604,-117.232638,
 92103,32.747098,-117.163565,
 92138,32.762758,-117.200398,
 92140,32.744058,-117.196076,
 92159,32.806702,-117.02592,
 92161,32.879947,-117.228751,
 92176,32.761794,-117.120515,
 92186,32.747783,-117.202029,
 92196,32.914241,-117.126252,
 92198,32.997052,-117.070698,
 92230,33.910084,-116.778681,
 92232,32.679271,-115.503159,
 92234,33.805422,-116.465099,
 92243,32.78935,-115.573129,
 92259,32.737491,-115.99397,
 92282,33.935794,-116.663942,
 92285,34.303601,-116.454275,
 92301,34.565977,-117.447157,
 92316,34.067032,-117.399399,
 92322,34.252934,-117.3242,
 92332,34.900984,-115.114715,
 92336,34.121128,-117.455976,
 92357,34.054612,-117.252812,
 92369,34.133473,-117.221198,
 92384,36.188188,-116.410849,
 92515,33.918462,-117.490092,
 92530,33.664192,-117.355651,
 92593,33.502066,-117.154829,
 92596,33.633131,-117.09969,
 92623,33.694249,-117.812612,
 92674,33.438428,-117.623131,
 92694,33.612655,-117.681732,
 92702,33.750367,-117.866589,
 92801,33.841626,-117.956337,
 92823,33.924529,-117.810578,
 92825,33.835647,-117.913197,
 92832,33.867434,-117.928339,
 92843,33.765576,-117.932424,
 92846,33.788031,-118.032536,
 92863,33.815348,-117.827275,
 92868,33.78611,-117.877127,
 92880,33.894722,-117.614109,
 92882,33.866874,-117.593475,
 93003,34.268835,-119.226689,
 93005,34.250131,-119.202985,
 93021,34.282943,-118.879702,
 93061,34.352648,-119.056905,
 93064,34.258952,-118.71177,
 93103,34.42785,-119.682853,
 93203,35.192113,-118.838064,
 93208,36.137286,-118.611308,
 93210,36.14728,-120.358404,
 93235,36.386365,-119.219515,
 93252,34.992262,-119.389299,
 93252,34.992262,-119.389299,
 93258,36.066445,-119.130717,
 95476,38.294095,-122.473554,
 95490,39.430698,-123.366249,
 95497,38.740768,-123.483539,
 95511,40.176044,-123.606249,
 95518,40.866107,-124.080793,
 95527,40.775234,-123.42847,
 95536,40.568469,-124.233545,
 95538,41.838225,-124.166415,
 95550,40.766969,-123.875436,
 95554,40.292879,-123.792989,
 95559,40.211585,-123.782226,
 95565,40.450889,-124.024387,
 95585,39.846593,-123.686588,
 95611,38.707001,-121.277971,
 95625,38.346263,-121.90237,
 95626,38.719783,-121.436356,
 95639,38.368835,-121.517767,
 95653,38.680956,-121.971051,
 95660,38.677691,-121.376105,
 95669,38.483552,-120.876465,
 95676,38.882324,-121.71617,
 95682,38.659748,-120.966041,
 95689,38.481873,-120.597405,
 95690,38.235446,-121.561263,
 95690,38.235446,-121.561263,
 95698,38.789567,-121.922857,
 95701,39.213231,-120.801982,
 95712,39.162319,-120.956753,
 95713,39.077754,-120.964079,
 95736,39.036076,-120.957294,
 95759,38.40435,-121.375312,
 95816,38.572362,-121.469865,
 95819,38.568648,-121.440545,
 95836,38.704056,-121.535546,
 95837,38.690833,-121.605999,
 95841,38.661228,-121.341598,
 95901,39.174031,-121.541115,
 95910,39.473279,-120.846156,
 95927,39.751744,-121.812533,
 95959,39.27709,-121.020227,
 95961,39.090087,-121.558915,
 95980,39.918474,-121.328711,
 95991,39.123351,-121.622392,
 96002,40.54865,-122.336306,
 96017,41.093441,-122.337598,
 96027,41.451492,-122.892534,
 96064,41.7378,-122.424508,
 96073,40.563899,-122.236104,
 96103,39.789246,-120.650507,
 96113,40.138912,-120.156585,
 96118,39.668969,-120.299894,
 96128,40.346837,-120.401589,
 96132,40.877918,-120.539683,
 96137,40.266627,-121.120265,
 96140,39.227511,-120.08124,
 96141,39.097839,-120.169341,
 96161,39.336197,-120.185207,
 96162,39.307577,-120.314785,
 90001,33.973124,-118.248502,
 90002,33.948747,-118.246649,
 90004,34.076457,-118.30305,
 90010,34.061968,-118.309864,
 90024,34.06211,-118.439824,
 90033,34.049002,-118.210856,
 90049,34.062788,-118.473026,
 90050,34.121378,-118.206906,
 90053,34.055647,-118.240465,
 90054,34.059368,-118.236094,
 90057,34.062192,-118.276513,
 90058,34.000989,-118.225568,
 90091,33.989658,-118.149153,
 90101,33.995072,-118.164164,
 90201,33.969641,-118.174228,
 90202,33.969924,-118.152353,
 90222,33.911687,-118.23527,
 90224,33.871965,-118.266771,
 90247,33.890694,-118.298115,
 90254,33.864371,-118.39776,
 90263,34.006202,-118.810015,
 90274,33.781234,-118.377564,
 90290,34.103098,-118.603987,
 90293,33.957546,-118.439976,
 90307,33.954677,-118.373609,
 90403,34.028981,-118.492972,
 90404,34.027843,-118.474422,
 90504,33.870589,-118.330787,
 90621,33.86973,-117.999712,
 90630,33.820152,-118.041036,
 90652,33.920448,-118.072097,
 90701,33.867009,-118.081108,
 90702,33.863402,-118.082521,
 90713,33.848908,-118.112258,
 90808,33.824438,-118.114213,
 90835,33.767817,-118.199401,
 90895,33.83968,-118.25959,
 91101,34.145666,-118.138532,
 91105,34.138024,-118.160212,
 91109,34.167069,-118.164718,
 91115,34.135882,-118.151588,
 91184,34.141599,-118.157559,
 91225,34.124264,-118.254291,
 91301,34.142623,-118.76179,
 91302,34.140573,-118.6618,
 91311,34.253062,-118.596245,
 91325,34.236255,-118.52163,
 91335,34.199573,-118.54033,
 91341,34.282219,-118.442779,
 91343,34.235658,-118.475661,
 93261,35.799126,-119.105162,
 93277,36.31012,-119.323289,
 93301,35.383295,-119.018599,
 93303,35.55218,-118.91904,
 93386,35.375572,-118.954656,
 93421,35.120678,-120.574422,
 93434,34.965035,-120.574481,
 93441,34.666706,-120.109409,
 93445,35.101718,-120.610471,
 93451,35.779072,-120.611456,
 93528,35.368926,-117.634207,
 93529,37.814915,-119.006993,
 93539,34.691705,-118.132025,
 93553,34.468424,-117.898119,
 93555,35.623021,-117.684258,
 93560,34.862546,-118.214621,
 93561,35.130998,-118.523593,
 93592,35.760853,-117.369077,
 93606,36.802578,-120.018346,
 93613,36.797845,-119.640595,
 93618,36.535668,-119.393508,
 93620,37.007613,-120.62718,
 93622,36.83368,-120.515935,
 93622,36.83368,-120.515935,
 93626,37.024286,-119.67475,
 93638,36.991602,-120.056025,
 93645,37.168007,-119.636238,
 93647,36.554284,-119.27135,
 93665,36.965202,-120.654813,
 93705,36.787419,-119.827511,
 93710,36.822618,-119.766278,
 93711,36.830208,-119.832597,
 93715,36.733038,-119.784751,
 93717,36.734019,-119.792056,
 93726,36.794261,-119.761498,
 93730,36.886971,-119.757623,
 93737,36.740681,-119.785728,
 93744,36.75868,-119.797616,
 93745,36.707049,-119.7535,
 93755,36.787369,-119.793518,
 93790,36.78944,-119.827606,
 93793,36.787165,-119.83021,
 93888,36.753596,-119.678137,
 93944,36.601163,-121.91916,
 93955,36.613125,-121.83497,
 94002,37.516318,-122.291891,
 94005,37.68411,-122.403019,
 94011,37.579502,-122.344321,
 94023,37.376602,-122.114401,
 94025,37.450344,-122.183554,
 94041,37.389527,-122.078375,
 94108,37.791426,-122.407541,
 94109,37.791056,-122.419173,
 94119,37.785934,-122.455188,
 94122,37.76004,-122.481319,
 94129,37.793466,-122.476633,
 94139,37.794865,-122.406188,
 94154,0,0,
 94156,0,0,
 94160,37.718015,-122.40439,
 94171,0,0,
 94203,38.584351,-121.493764,
 94205,38.476582,-121.442713,
 94208,38.584815,-121.494887,
 94244,38.588001,-121.493785,
 94252,38.586196,-121.495323,
 94259,38.558715,-121.497522,
 94268,38.582457,-121.491815,
 94277,38.58521,-121.489578,
 94301,37.445071,-122.154513,
 94303,37.451731,-122.130646,
 94404,37.553725,-122.267122,
 94501,37.76916,-122.259884,
 94516,37.834668,-122.188041,
 94530,37.917091,-122.30525,
 94550,37.672602,-121.758554,
 94572,38.031381,-122.262632,
 94580,37.678995,-122.130198,
 94609,37.833338,-122.264479,
 94614,37.729709,-122.200667,
 94623,37.810666,-122.29747,
 94660,37.795912,-122.269768,
 94666,37.809816,-122.265531,
 94706,37.889931,-122.295558,
 94709,37.877854,-122.26723,
 94913,38.025782,-122.54487,
 94926,38.326476,-122.712308,
 94948,38.135776,-122.562237,
 94963,38.012786,-122.663972,
 94973,38.007689,-122.640149,
 94975,38.322344,-122.646575,
 94977,37.938018,-122.535263,
 95030,37.230053,-121.982855,
 95039,36.824648,-121.775916,
 95043,36.581,-121.01359,
 95053,37.34792,-121.936525,
 95055,37.336569,-121.983835,
 95134,37.407198,-121.939538,
 95212,38.033591,-121.257746,
 95219,38.008326,-121.363907,
 95223,38.278493,-120.319375,
 95226,38.224462,-120.859612,
 95227,38.201788,-121.069202,
 95228,37.925685,-120.612372,
 95230,37.950175,-120.916757,
 95230,37.950175,-120.916757,
 95233,38.185926,-120.372735,
 95236,38.017945,-121.070035,
 91350,34.441322,-118.518408,
 91354,34.44275,-118.544781,
 91386,34.41749,-118.449656,
 91387,34.417775,-118.436468,
 91390,34.507498,-118.401842,
 91402,34.225721,-118.448104,
 91407,34.193851,-118.448447,
 91508,34.191193,-118.328476,
 91607,34.166196,-118.399683,
 91609,34.188269,-118.386781,
 91610,34.155836,-118.379194,
 91730,34.10449,-117.589169,
 91733,34.054424,-118.046676,
 91741,34.139209,-117.85525,
 91744,34.030588,-117.940427,
 91770,34.065641,-118.084659,
 91795,0,0,
 91804,34.092015,-118.128852,
 91901,32.826225,-116.755374,
 91910,32.638604,-117.067616,
 91944,32.768983,-117.021343,
 91976,32.749273,-116.98731,
 92019,32.780726,-116.91664,
 92059,33.407636,-117.084519,
 92071,32.845515,-116.986284,
 92083,33.196882,-117.251251,
 92084,33.213205,-117.221613,
 92086,33.364833,-116.707042,
 92093,32.873071,-117.240097,
 92104,32.746814,-117.129874,
 92111,32.803088,-117.167947,
 92113,32.697224,-117.113081,
 92143,32.567534,-116.974021,
 92145,32.880755,-117.137485,
 92165,32.75196,-117.10224,
 92182,32.772953,-117.071926,
 92220,33.923198,-116.893787,
 92254,33.54461,-115.973458,
 92263,33.875893,-116.566292,
 92274,33.519127,-116.111242,
 92278,34.232148,-116.055104,
 92307,34.533186,-117.210382,
 92314,34.254979,-116.829331,
 92317,34.274933,-117.204147,
 92325,34.246903,-117.301217,
 92327,34.857118,-116.816246,
 92331,34.092178,-117.460591,
 92347,34.933753,-117.181607,
 92359,34.072272,-117.112508,
 92364,35.400041,-115.583038,
 92365,34.867924,-116.665769,
 92407,34.175772,-117.330139,
 92413,34.150103,-117.25672,
 92505,33.91683,-117.486884,
 92509,33.996412,-117.44642,
 92513,33.913065,-117.459088,
 92536,33.500084,-116.812772,
 92543,33.74097,-116.97393,
 92551,33.890755,-117.222182,
 92557,33.954965,-117.248368,
 92595,33.61637,-117.266125,
 92605,33.715124,-118.007674,
 92614,33.68287,-117.837121,
 92617,33.642115,-117.84385,
 92628,33.673019,-117.923591,
 92652,33.543004,-117.781451,
 92656,33.576277,-117.724752,
 92656,33.576277,-117.724752,
 92657,33.605379,-117.833509,
 92659,33.622189,-117.923518,
 92660,33.637302,-117.874394,
 92663,33.621242,-117.929748,
 92675,33.49948,-117.660549,
 92684,33.762656,-118.007203,
 92690,33.611708,-117.64297,
 92707,33.708881,-117.872236,
 92735,33.718836,-117.854616,
 92780,33.738611,-117.821225,
 92807,33.852115,-117.793586,
 92809,33.842578,-117.938803,
 92817,33.851223,-117.791464,
 92835,33.901396,-117.910276,
 92837,33.869533,-117.961118,
 92845,33.783032,-118.027399,
 92861,33.817562,-117.810363,
 92869,33.792489,-117.799082,
 92871,33.888194,-117.863691,
 93002,34.280703,-119.286797,
 93010,34.229187,-119.052353,
 93013,34.399506,-119.518298,
 93034,34.172552,-119.177361,
 93042,34.111951,-119.100388,
 93067,34.422355,-119.596145,
 93099,34.262932,-118.75053,
 93150,34.434711,-119.632112,
 93190,34.425295,-119.701451,
 93202,36.308777,-119.707451,
 93243,34.859155,-118.881586,
 93246,36.264062,-119.878378,
 93250,35.676358,-119.228021,
 93257,36.068048,-119.035215,
 93266,36.176498,-119.8132,
 93267,36.143154,-119.087439,
 93272,36.052535,-119.311742,
 93274,36.201442,-119.34649,
 93276,35.290082,-119.335739,
 93285,35.71431,-118.476018,
 91411,34.178515,-118.458892,
 95249,38.194134,-120.663531,
 95257,38.37485,-120.479058,
 95313,37.44029,-121.030981,
 95318,37.648397,-119.854301,
 95324,37.402794,-120.863258,
 95333,37.241578,-120.267022,
 95337,37.787742,-121.233844,
 95363,37.478924,-121.132956,
 95365,37.309858,-120.324571,
 95367,37.730942,-120.942747,
 95375,38.196233,-120.013415,
 95378,37.79914,-121.551767,
 95385,37.613096,-121.256133,
 95387,37.567797,-121.211323,
 95391,37.766273,-121.542162,
 95402,38.471813,-122.607592,
 95409,38.460152,-122.642151,
 95420,39.366751,-123.807077,
 95427,39.263392,-123.608998,
 95463,39.12648,-123.54702,
 95473,38.400744,-122.824549,
 95480,38.700013,-123.42606,
 95488,39.661627,-123.782876,
 95494,38.892763,-123.357372,
 95502,40.786017,-124.19216,
 95542,40.093632,-123.788013,
 95553,40.212752,-123.842699,
 95589,40.033233,-124.030112,
 95605,38.591652,-121.527353,
 95616,38.555199,-121.761219,
 95616,38.555199,-121.761219,
 95633,38.845186,-120.837617,
 95638,38.307861,-121.178897,
 95648,38.909906,-121.291363,
 95655,38.565345,-121.292615,
 95661,38.734479,-121.254855,
 95665,38.40574,-120.657257,
 95668,38.819096,-121.489094,
 95762,38.691331,-121.070686,
 95812,38.581929,-121.496349,
 95817,38.550413,-121.461415,
 95828,38.483312,-121.400768,
 95829,38.468769,-121.34543,
 95836,38.704056,-121.535546,
 95842,38.684597,-121.352679,
 95851,38.608099,-121.441544,
 95894,38.556683,-121.498069,
 95912,38.985879,-122.049893,
 95916,39.637544,-121.397878,
 95918,39.28587,-121.361832,
 95920,39.427425,-121.968972,
 95940,39.51162,-121.55652,
 95957,39.10965,-121.875485,
 95965,39.557212,-121.573371,
 95970,39.436035,-122.031266,
 95979,39.307351,-122.49578,
 95981,39.562636,-121.112823,
 96006,41.202807,-120.938418,
 96013,40.89354,-121.658118,
 96015,41.561292,-121.024824,
 96019,40.676784,-122.368119,
 96035,40.040325,-122.170872,
 96048,40.744812,-123.118493,
 96062,40.554457,-122.152064,
 96078,40.077572,-122.170185,
 96080,40.177246,-122.24972,
 96104,41.526853,-120.171905,
 96107,38.545935,-119.481076,
 96116,41.232112,-120.503123,
 96120,38.791689,-119.803601,
 96133,38.662748,-119.538826,
 96134,41.944492,-121.464936,
 90007,34.028835,-118.284902,
 90025,34.045119,-118.450309,
 90030,34.062074,-118.238504,
 90046,34.097942,-118.359274,
 90058,34.000989,-118.225568,
 90062,34.004233,-118.308968,
 90069,34.089981,-118.380338,
 90075,34.064493,-118.309555,
 90087,34.064384,-118.240662,
 90089,34.023652,-118.282218,
 90095,34.070199,-118.45102,
 90096,33.967004,-118.172186,
 90201,33.969641,-118.174228,
 90222,33.911687,-118.23527,
 90223,33.892498,-118.226452,
 90230,33.996155,-118.395494,
 90242,33.922126,-118.14018,
 90261,33.896363,-118.378608,
 90265,34.038645,-118.76262,
 90270,33.989012,-118.188728,
 90274,33.781234,-118.377564,
 90291,33.992218,-118.468231,
 90292,33.980972,-118.448765,
 90304,33.93912,-118.357409,
 90408,34.026164,-118.491968,
 90622,33.846186,-118.003132,
 90631,33.932025,-117.951138,
 90639,33.905646,-118.018314,
 90651,33.906859,-118.076073,
 90716,33.830567,-118.072204,
 90721,33.802254,-118.068984,
 90733,33.706639,-118.290674,
 90740,33.761223,-118.088116,
 90743,33.726441,-118.083289,
 90802,33.769354,-118.186389,
 90804,33.781807,-118.151482,
 90810,33.813961,-118.216813,
 90840,33.781444,-118.118257,
 90899,33.767496,-118.187712,
 91011,34.207877,-118.202827,
 91021,34.206931,-118.225323,
 91104,34.167598,-118.128417,
 91106,34.143312,-118.127608,
 91118,34.125011,-118.092416,
 91123,34.14475,-118.157024,
 91182,34.148771,-118.140407,
 91214,34.229106,-118.246837,
 91303,34.197605,-118.600075,
 91304,34.22228,-118.612343,
 91307,34.198189,-118.640976,
 91316,34.166673,-118.515759,
 91319,34.184847,-118.916417,
 91333,34.266069,-118.426873,
 91345,34.262884,-118.461932,
 92049,33.19482,-117.379671,
 92178,32.681525,-117.1759,
 92239,33.713055,-115.400995,
 92283,32.777136,-114.611928,
 92318,34.048314,-117.236423,
 92389,35.948545,-115.897853,
 92555,33.930612,-117.178808,
 92609,33.62401,-117.690845,
 92615,33.656552,-117.969874,
 92653,33.600107,-117.70384,
 92804,33.818585,-117.977157,
 92808,33.857145,-117.742967,
 92856,33.784056,-117.843476,
 92860,33.925967,-117.556807,
 92883,33.76467,-117.471545,
 93007,34.28972,-119.157813,
 93012,34.2239,-118.986472,
 93015,34.398276,-118.908883,
 93016,34.401111,-118.911775,
 93066,34.282422,-119.005691,
 93110,34.442153,-119.762663,
 93111,34.440644,-119.804809,
 93117,34.429976,-119.863785,
 93212,36.09658,-119.567555,
 93215,35.772304,-119.25853,
 93226,35.769984,-118.708706,
 93243,34.859155,-118.881586,
 93254,34.935537,-119.64775,
 93260,35.809957,-118.645499,
 93275,36.20753,-119.34371,
 93292,36.343347,-119.253181,
 93424,35.183729,-120.725586,
 93427,34.61756,-120.19957,
 93442,35.378028,-120.848392,
 93451,35.779072,-120.611456,
 93512,37.804423,-118.506376,
 93527,35.705182,-117.836993,
 93610,37.097571,-120.270219,
 94074,37.322943,-122.356944,
 94163,37.791422,-122.399414,
 94505,37.900085,-121.605539,
 94520,37.976249,-122.040813,
 94551,37.700931,-121.763916,
 94574,38.511576,-122.462823,
 94588,37.687088,-121.900495,
 94589,38.139664,-122.245402,
 94607,37.805208,-122.281273,
 94611,37.827248,-122.233319,
 94661,37.829778,-122.209894,
 94704,37.866627,-122.261758,
 94927,38.347442,-122.698375,
 94931,38.326938,-122.708265,
 94938,38.011317,-122.696447,
 94939,37.939672,-122.536984,
 94956,38.068143,-122.838701,
 95003,36.978795,-121.891357,
 95005,37.084563,-122.085126,
 95007,37.107721,-122.109557,
 95017,37.055841,-122.228855,
 95023,36.851692,-121.389412,
 95056,37.400588,-121.963467,
 95076,36.926967,-121.765861,
 95077,36.911048,-121.758494,
 95115,37.304232,-121.887889,
 95121,37.306701,-121.81204,
 95132,37.404164,-121.85971,
 95138,37.256833,-121.769935,
 95157,37.299956,-121.975922,
 95225,38.184216,-120.886309,
 95229,38.116433,-120.457748,
 95231,37.876608,-121.281484,
 95241,38.152443,-121.306349,
 95247,38.148309,-120.439006,
 95251,38.103509,-120.463972,
 95315,37.42583,-120.777033,
 95324,37.402794,-120.863258,
 95334,37.379356,-120.721882,
 95357,37.661681,-120.91076,
 95358,37.62363,-121.039632,
 95372,37.992829,-120.26156,
 95380,37.49071,-120.851793,
 95424,38.968797,-122.661577,
 95459,39.021462,-123.683775,
 95461,38.788018,-122.650012,
 95540,40.585233,-124.144489,
 95567,41.941212,-124.17881,
 95678,38.752814,-121.291077,
 95685,38.405113,-120.76824,
 95722,39.005248,-121.026045,
 95724,39.31038,-120.43722,
 95747,38.769448,-121.335091,
 95798,38.574918,-121.561857,
 95838,38.64134,-121.443966,
 95864,38.585754,-121.379068,
 95865,38.588685,-121.407253,
 95867,38.584856,-121.493723,
 95903,39.104944,-121.343749,
 95922,39.406594,-121.100451,
 95923,40.21099,-121.162268,
 95925,39.495306,-121.215637,
 95939,39.498732,-122.522691,
 95943,39.616989,-122.026874,
 95945,39.207714,-121.027068,
 95953,39.26208,-121.682228,
 95956,39.938546,-121.065083,
 95963,39.751231,-122.186538,
 95968,39.435357,-121.548265,
 95969,39.758259,-121.604186,
 95971,39.93933,-120.909786,
 95978,39.95499,-121.512036,
 95981,39.562636,-121.112823,
 96006,41.202807,-120.938418,
 96022,40.35639,-122.332726,
 96025,41.211718,-122.275403,
 96029,39.908402,-122.487862,
 96033,40.741348,-122.615134,
 96038,41.607058,-122.531119,
 96039,41.850493,-123.396882,
 96057,41.3718,-121.88508,
 96063,40.360478,-121.564354,
 96070,40.803518,-122.311915,
 96075,40.345981,-121.810321,
 96076,40.337583,-122.886288,
 96079,40.691415,-122.344769,
 96091,40.852123,-122.863534,
 96093,40.732607,-122.935131,
 96105,39.814658,-120.211585,
 96117,40.402932,-120.423573,
 96119,41.051717,-120.475594,
 96126,39.593878,-120.281794,
 96134,41.944492,-121.464936,
 96135,39.719317,-120.214213,
 96148,39.240575,-120.071544,
 96152,38.94228,-119.976119,
 96154,38.943645,-119.977876,
 96160,39.329587,-120.179308,
