{
  "swagger": "2.0",
  "info": {
    "description": "Api Documentation",
    "version": "1.0",
    "title": "Api Documentation",
    "termsOfService": "urn:tos",
    "contact": {
      "name": "Contact Email"
    },
    "license": {
      "name": "Apache 2.0",
      "url": "http://www.apache.org/licenses/LICENSE-2.0"
    }
  },
  "host": "localhost:8080",
  "basePath": "/ghix",
  "tags": [
    {
      "name": "home-controller",
      "description": "Home Controller"
    },
    {
      "name": "ifsv-controller",
      "description": "IFSV Controller"
    },
    {
      "name": "smec-controller",
      "description": "SMEC Controller"
    },
    {
      "name": "endpoint-mvc-adapter",
      "description": "Endpoint Mvc Adapter"
    },
    {
      "name": "nmec-controller",
      "description": "NMEC Controller"
    },
    {
      "name": "apc-controller",
      "description": "APC Controller"
    },
    {
      "name": "check-hub-connectivity-controller",
      "description": "Check Hub Connectivity Controller"
    },
    {
      "name": "shop-mec-controller",
      "description": "Shop MEC Controller"
    },
    {
      "name": "vlp-controller",
      "description": "VLP Controller"
    },
    {
      "name": "qac-controller",
      "description": "QAC Controller"
    },
    {
      "name": "ridp-controller",
      "description": "RIDP Controller"
    },
    {
      "name": "vci-controller",
      "description": "VCI Controller"
    },
    {
      "name": "ssac-controller",
      "description": "SSAC Controller"
    },
    {
      "name": "health-mvc-endpoint",
      "description": "Health Mvc Endpoint"
    },
    {
      "name": "hub-testing-controller",
      "description": "Hub Testing Controller"
    },
    {
      "name": "mec-controller",
      "description": "MEC Controller"
    }
  ],
  "paths": {
    "/": {
      "get": {
        "tags": [
          "home-controller"
        ],
        "summary": "home",
        "operationId": "homeUsingGET",
        "consumes": [
          "application/json"
        ],
        "produces": [
          "text/html"
        ],
        "parameters": [ ],
        "responses": {
          "200": {
            "description": "OK",
            "schema": {
              "type": "object"
            }
          },
          "401": {
            "description": "Unauthorized"
          },
          "403": {
            "description": "Forbidden"
          },
          "404": {
            "description": "Not Found"
          }
        }
      }
    },
    "/actuator/beans": {
      "get": {
        "tags": [
          "endpoint-mvc-adapter"
        ],
        "summary": "invoke",
        "operationId": "invokeUsingGET",
        "consumes": [
          "application/json"
        ],
        "produces": [
          "application/json"
        ],
        "responses": {
          "200": {
            "description": "OK",
            "schema": {
              "type": "object"
            }
          },
          "401": {
            "description": "Unauthorized"
          },
          "403": {
            "description": "Forbidden"
          },
          "404": {
            "description": "Not Found"
          }
        }
      }
    },
    "/actuator/env": {
      "get": {
        "tags": [
          "endpoint-mvc-adapter"
        ],
        "summary": "invoke",
        "operationId": "invokeUsingGET_1",
        "consumes": [
          "application/json"
        ],
        "produces": [
          "application/json"
        ],
        "responses": {
          "200": {
            "description": "OK",
            "schema": {
              "type": "object"
            }
          },
          "401": {
            "description": "Unauthorized"
          },
          "403": {
            "description": "Forbidden"
          },
          "404": {
            "description": "Not Found"
          }
        }
      }
    },
    "/actuator/health": {
      "get": {
        "tags": [
          "health-mvc-endpoint"
        ],
        "summary": "invoke",
        "operationId": "invokeUsingGET_4",
        "consumes": [
          "application/json"
        ],
        "produces": [
          "application/json"
        ],
        "parameters": [
          {
            "in": "body",
            "name": "principal",
            "description": "principal",
            "required": false,
            "schema": {
              "type": "object"
            }
          }
        ],
        "responses": {
          "200": {
            "description": "OK",
            "schema": {
              "type": "object"
            }
          },
          "401": {
            "description": "Unauthorized"
          },
          "403": {
            "description": "Forbidden"
          },
          "404": {
            "description": "Not Found"
          }
        }
      }
    },
    "/actuator/info": {
      "get": {
        "tags": [
          "endpoint-mvc-adapter"
        ],
        "summary": "invoke",
        "operationId": "invokeUsingGET_2",
        "consumes": [
          "application/json"
        ],
        "produces": [
          "application/json"
        ],
        "responses": {
          "200": {
            "description": "OK",
            "schema": {
              "type": "object"
            }
          },
          "401": {
            "description": "Unauthorized"
          },
          "403": {
            "description": "Forbidden"
          },
          "404": {
            "description": "Not Found"
          }
        }
      }
    },
    "/actuator/mappings": {
      "get": {
        "tags": [
          "endpoint-mvc-adapter"
        ],
        "summary": "invoke",
        "operationId": "invokeUsingGET_3",
        "consumes": [
          "application/json"
        ],
        "produces": [
          "application/json"
        ],
        "responses": {
          "200": {
            "description": "OK",
            "schema": {
              "type": "object"
            }
          },
          "401": {
            "description": "Unauthorized"
          },
          "403": {
            "description": "Forbidden"
          },
          "404": {
            "description": "Not Found"
          }
        }
      }
    },
    "/checkHubConnectivity": {
      "post": {
        "tags": [
          "check-hub-connectivity-controller"
        ],
        "summary": "checkHubConnectivity",
        "operationId": "checkHubConnectivityUsingPOST",
        "consumes": [
          "application/json"
        ],
        "produces": [
          "application/json"
        ],
        "parameters": [
          {
            "in": "body",
            "name": "requestJSON",
            "description": "requestJSON",
            "required": true,
            "schema": {
              "type": "string"
            }
          }
        ],
        "responses": {
          "200": {
            "description": "OK",
            "schema": {
              "type": "object"
            }
          },
          "201": {
            "description": "Created"
          },
          "401": {
            "description": "Unauthorized"
          },
          "403": {
            "description": "Forbidden"
          },
          "404": {
            "description": "Not Found"
          }
        }
      }
    },
    "/getCountryOfIssuanceList": {
      "post": {
        "tags": [
          "vlp-controller"
        ],
        "summary": "getCountryOfIssuanceList",
        "operationId": "getCountryOfIssuanceListUsingPOST",
        "consumes": [
          "application/json"
        ],
        "produces": [
          "application/json"
        ],
        "parameters": [
          {
            "in": "body",
            "name": "vlpRequestJSON",
            "description": "vlpRequestJSON",
            "required": true,
            "schema": {
              "type": "string"
            }
          }
        ],
        "responses": {
          "200": {
            "description": "OK",
            "schema": {
              "type": "object"
            }
          },
          "201": {
            "description": "Created"
          },
          "401": {
            "description": "Unauthorized"
          },
          "403": {
            "description": "Forbidden"
          },
          "404": {
            "description": "Not Found"
          }
        }
      }
    },
    "/invokeAPC": {
      "post": {
        "tags": [
          "apc-controller"
        ],
        "summary": "invokeAPC",
        "operationId": "invokeAPCUsingPOST",
        "consumes": [
          "application/json"
        ],
        "produces": [
          "application/json"
        ],
        "parameters": [
          {
            "in": "body",
            "name": "apcRequestJSON",
            "description": "apcRequestJSON",
            "required": true,
            "schema": {
              "type": "string"
            }
          }
        ],
        "responses": {
          "200": {
            "description": "OK",
            "schema": {
              "type": "object"
            }
          },
          "201": {
            "description": "Created"
          },
          "401": {
            "description": "Unauthorized"
          },
          "403": {
            "description": "Forbidden"
          },
          "404": {
            "description": "Not Found"
          }
        }
      }
    },
    "/invokeCloseCaseRequest": {
      "post": {
        "tags": [
          "vlp-controller"
        ],
        "summary": "invokeCloseCaseRequest",
        "operationId": "invokeCloseCaseRequestUsingPOST",
        "consumes": [
          "application/json"
        ],
        "produces": [
          "application/json"
        ],
        "parameters": [
          {
            "in": "body",
            "name": "vlpRequestJSON",
            "description": "vlpRequestJSON",
            "required": true,
            "schema": {
              "type": "string"
            }
          }
        ],
        "responses": {
          "200": {
            "description": "OK",
            "schema": {
              "type": "object"
            }
          },
          "201": {
            "description": "Created"
          },
          "401": {
            "description": "Unauthorized"
          },
          "403": {
            "description": "Forbidden"
          },
          "404": {
            "description": "Not Found"
          }
        }
      }
    },
    "/invokeFARS": {
      "post": {
        "tags": [
          "ridp-controller"
        ],
        "summary": "invokeFARS",
        "operationId": "invokeFARSUsingPOST",
        "consumes": [
          "application/json"
        ],
        "produces": [
          "application/json"
        ],
        "parameters": [
          {
            "in": "body",
            "name": "requestJSON",
            "description": "requestJSON",
            "required": true,
            "schema": {
              "type": "string"
            }
          }
        ],
        "responses": {
          "200": {
            "description": "OK",
            "schema": {
              "type": "object"
            }
          },
          "201": {
            "description": "Created"
          },
          "401": {
            "description": "Unauthorized"
          },
          "403": {
            "description": "Forbidden"
          },
          "404": {
            "description": "Not Found"
          }
        }
      }
    },
    "/invokeGetCaseDetailsRequest": {
      "post": {
        "tags": [
          "vlp-controller"
        ],
        "summary": "invokeGetCaseDetailsRequest",
        "operationId": "invokeGetCaseDetailsRequestUsingPOST",
        "consumes": [
          "application/json"
        ],
        "produces": [
          "application/json"
        ],
        "parameters": [
          {
            "in": "body",
            "name": "vlpRequestJSON",
            "description": "vlpRequestJSON",
            "required": true,
            "schema": {
              "type": "string"
            }
          }
        ],
        "responses": {
          "200": {
            "description": "OK",
            "schema": {
              "type": "object"
            }
          },
          "201": {
            "description": "Created"
          },
          "401": {
            "description": "Unauthorized"
          },
          "403": {
            "description": "Forbidden"
          },
          "404": {
            "description": "Not Found"
          }
        }
      }
    },
    "/invokeIFSV": {
      "post": {
        "tags": [
          "ifsv-controller"
        ],
        "summary": "invokeIFSV",
        "operationId": "invokeIFSVUsingPOST",
        "consumes": [
          "application/json"
        ],
        "produces": [
          "application/json"
        ],
        "parameters": [
          {
            "in": "body",
            "name": "ifsvRequestJSON",
            "description": "ifsvRequestJSON",
            "required": true,
            "schema": {
              "type": "string"
            }
          }
        ],
        "responses": {
          "200": {
            "description": "OK",
            "schema": {
              "type": "object"
            }
          },
          "201": {
            "description": "Created"
          },
          "401": {
            "description": "Unauthorized"
          },
          "403": {
            "description": "Forbidden"
          },
          "404": {
            "description": "Not Found"
          }
        }
      }
    },
    "/invokeMEC": {
      "post": {
        "tags": [
          "mec-controller"
        ],
        "summary": "invokeMEC",
        "operationId": "invokeMECUsingPOST",
        "consumes": [
          "application/json"
        ],
        "produces": [
          "application/json"
        ],
        "parameters": [
          {
            "in": "body",
            "name": "mecRequestJSON",
            "description": "mecRequestJSON",
            "required": true,
            "schema": {
              "type": "string"
            }
          }
        ],
        "responses": {
          "200": {
            "description": "OK",
            "schema": {
              "type": "object"
            }
          },
          "201": {
            "description": "Created"
          },
          "401": {
            "description": "Unauthorized"
          },
          "403": {
            "description": "Forbidden"
          },
          "404": {
            "description": "Not Found"
          }
        }
      }
    },
    "/invokeNMEC": {
      "post": {
        "tags": [
          "nmec-controller"
        ],
        "summary": "invokeNMEC",
        "operationId": "invokeNMECUsingPOST",
        "consumes": [
          "application/json"
        ],
        "produces": [
          "application/json"
        ],
        "parameters": [
          {
            "in": "body",
            "name": "nMECRequestJSON",
            "description": "nMECRequestJSON",
            "required": true,
            "schema": {
              "type": "string"
            }
          }
        ],
        "responses": {
          "200": {
            "description": "OK",
            "schema": {
              "type": "object"
            }
          },
          "201": {
            "description": "Created"
          },
          "401": {
            "description": "Unauthorized"
          },
          "403": {
            "description": "Forbidden"
          },
          "404": {
            "description": "Not Found"
          }
        }
      }
    },
    "/invokeQAC": {
      "post": {
        "tags": [
          "qac-controller"
        ],
        "summary": "invokeQAC",
        "operationId": "invokeQACUsingPOST",
        "consumes": [
          "application/json"
        ],
        "produces": [
          "application/json"
        ],
        "parameters": [
          {
            "in": "body",
            "name": "qacRequestJSON",
            "description": "qacRequestJSON",
            "required": true,
            "schema": {
              "type": "string"
            }
          }
        ],
        "responses": {
          "200": {
            "description": "OK",
            "schema": {
              "type": "object"
            }
          },
          "201": {
            "description": "Created"
          },
          "401": {
            "description": "Unauthorized"
          },
          "403": {
            "description": "Forbidden"
          },
          "404": {
            "description": "Not Found"
          }
        }
      }
    },
    "/invokeRIDPPrimary": {
      "post": {
        "tags": [
          "ridp-controller"
        ],
        "summary": "invokeRIDPPrimary",
        "operationId": "invokeRIDPPrimaryUsingPOST",
        "consumes": [
          "application/json"
        ],
        "produces": [
          "application/json"
        ],
        "parameters": [
          {
            "in": "body",
            "name": "primaryRequestJSON",
            "description": "primaryRequestJSON",
            "required": true,
            "schema": {
              "type": "string"
            }
          }
        ],
        "responses": {
          "200": {
            "description": "OK",
            "schema": {
              "type": "object"
            }
          },
          "201": {
            "description": "Created"
          },
          "401": {
            "description": "Unauthorized"
          },
          "403": {
            "description": "Forbidden"
          },
          "404": {
            "description": "Not Found"
          }
        }
      }
    },
    "/invokeRIDPSecondary": {
      "post": {
        "tags": [
          "ridp-controller"
        ],
        "summary": "invokeRIDPSecondary",
        "operationId": "invokeRIDPSecondaryUsingPOST",
        "consumes": [
          "application/json"
        ],
        "produces": [
          "application/json"
        ],
        "parameters": [
          {
            "in": "body",
            "name": "secondaryRequestJSON",
            "description": "secondaryRequestJSON",
            "required": true,
            "schema": {
              "type": "string"
            }
          }
        ],
        "responses": {
          "200": {
            "description": "OK",
            "schema": {
              "type": "object"
            }
          },
          "201": {
            "description": "Created"
          },
          "401": {
            "description": "Unauthorized"
          },
          "403": {
            "description": "Forbidden"
          },
          "404": {
            "description": "Not Found"
          }
        }
      }
    },
    "/invokeResubAgencyRequest": {
      "post": {
        "tags": [
          "vlp-controller"
        ],
        "summary": "invokeResubAgencyRequest",
        "operationId": "invokeResubAgencyRequestUsingPOST",
        "consumes": [
          "application/json"
        ],
        "produces": [
          "application/json"
        ],
        "parameters": [
          {
            "in": "body",
            "name": "vlpRequestJSON",
            "description": "vlpRequestJSON",
            "required": true,
            "schema": {
              "type": "string"
            }
          }
        ],
        "responses": {
          "200": {
            "description": "OK",
            "schema": {
              "type": "object"
            }
          },
          "201": {
            "description": "Created"
          },
          "401": {
            "description": "Unauthorized"
          },
          "403": {
            "description": "Forbidden"
          },
          "404": {
            "description": "Not Found"
          }
        }
      }
    },
    "/invokeReverifyAgencyRequest": {
      "post": {
        "tags": [
          "vlp-controller"
        ],
        "summary": "invokeReverifyAgencyRequest",
        "operationId": "invokeReverifyAgencyRequestUsingPOST",
        "consumes": [
          "application/json"
        ],
        "produces": [
          "application/json"
        ],
        "parameters": [
          {
            "in": "body",
            "name": "vlpRequestJSON",
            "description": "vlpRequestJSON",
            "required": true,
            "schema": {
              "type": "string"
            }
          }
        ],
        "responses": {
          "200": {
            "description": "OK",
            "schema": {
              "type": "object"
            }
          },
          "201": {
            "description": "Created"
          },
          "401": {
            "description": "Unauthorized"
          },
          "403": {
            "description": "Forbidden"
          },
          "404": {
            "description": "Not Found"
          }
        }
      }
    },
    "/invokeSMEC": {
      "post": {
        "tags": [
          "smec-controller"
        ],
        "summary": "invokeSMEC",
        "operationId": "invokeSMECUsingPOST_1",
        "consumes": [
          "application/json"
        ],
        "produces": [
          "application/json"
        ],
        "parameters": [
          {
            "in": "body",
            "name": "sMECRequestJSON",
            "description": "sMECRequestJSON",
            "required": true,
            "schema": {
              "type": "string"
            }
          }
        ],
        "responses": {
          "200": {
            "description": "OK",
            "schema": {
              "type": "object"
            }
          },
          "201": {
            "description": "Created"
          },
          "401": {
            "description": "Unauthorized"
          },
          "403": {
            "description": "Forbidden"
          },
          "404": {
            "description": "Not Found"
          }
        }
      }
    },
    "/invokeSSAC": {
      "get": {
        "tags": [
          "hub-testing-controller"
        ],
        "summary": "invokeSSAC",
        "operationId": "invokeSSACUsingGET",
        "consumes": [
          "application/json"
        ],
        "produces": [
          "application/json"
        ],
        "responses": {
          "200": {
            "description": "OK"
          },
          "401": {
            "description": "Unauthorized"
          },
          "403": {
            "description": "Forbidden"
          },
          "404": {
            "description": "Not Found"
          }
        }
      },
      "post": {
        "tags": [
          "ssac-controller"
        ],
        "summary": "invokeSSAC",
        "operationId": "invokeSSACUsingPOST",
        "consumes": [
          "application/json"
        ],
        "produces": [
          "application/json"
        ],
        "parameters": [
          {
            "in": "body",
            "name": "ssacRequestJSON",
            "description": "ssacRequestJSON",
            "required": true,
            "schema": {
              "type": "string"
            }
          }
        ],
        "responses": {
          "200": {
            "description": "OK",
            "schema": {
              "type": "object"
            }
          },
          "201": {
            "description": "Created"
          },
          "401": {
            "description": "Unauthorized"
          },
          "403": {
            "description": "Forbidden"
          },
          "404": {
            "description": "Not Found"
          }
        }
      }
    },
    "/invokeSSACForDeathVerification": {
      "post": {
        "tags": [
          "ssac-controller"
        ],
        "summary": "invokeSSACForDeathVerification",
        "operationId": "invokeSSACForDeathVerificationUsingPOST",
        "consumes": [
          "application/json"
        ],
        "produces": [
          "application/json"
        ],
        "parameters": [
          {
            "in": "body",
            "name": "ssacRequestJSON",
            "description": "ssacRequestJSON",
            "required": true,
            "schema": {
              "type": "string"
            }
          }
        ],
        "responses": {
          "200": {
            "description": "OK",
            "schema": {
              "type": "object"
            }
          },
          "201": {
            "description": "Created"
          },
          "401": {
            "description": "Unauthorized"
          },
          "403": {
            "description": "Forbidden"
          },
          "404": {
            "description": "Not Found"
          }
        }
      }
    },
    "/invokeSSACForIncarcerationVerification": {
      "post": {
        "tags": [
          "ssac-controller"
        ],
        "summary": "invokeSSACForIncarcerationVerification",
        "operationId": "invokeSSACForIncarcerationVerificationUsingPOST",
        "consumes": [
          "application/json"
        ],
        "produces": [
          "application/json"
        ],
        "parameters": [
          {
            "in": "body",
            "name": "ssacRequestJSON",
            "description": "ssacRequestJSON",
            "required": true,
            "schema": {
              "type": "string"
            }
          }
        ],
        "responses": {
          "200": {
            "description": "OK",
            "schema": {
              "type": "object"
            }
          },
          "201": {
            "description": "Created"
          },
          "401": {
            "description": "Unauthorized"
          },
          "403": {
            "description": "Forbidden"
          },
          "404": {
            "description": "Not Found"
          }
        }
      }
    },
    "/invokeSSACForSSNVerification": {
      "post": {
        "tags": [
          "ssac-controller"
        ],
        "summary": "invokeSSACForSSNVerification",
        "operationId": "invokeSSACForSSNVerificationUsingPOST",
        "consumes": [
          "application/json"
        ],
        "produces": [
          "application/json"
        ],
        "parameters": [
          {
            "in": "body",
            "name": "ssacRequestJSON",
            "description": "ssacRequestJSON",
            "required": true,
            "schema": {
              "type": "string"
            }
          }
        ],
        "responses": {
          "200": {
            "description": "OK",
            "schema": {
              "type": "object"
            }
          },
          "201": {
            "description": "Created"
          },
          "401": {
            "description": "Unauthorized"
          },
          "403": {
            "description": "Forbidden"
          },
          "404": {
            "description": "Not Found"
          }
        }
      }
    },
    "/invokeShopMEC": {
      "post": {
        "tags": [
          "shop-mec-controller"
        ],
        "summary": "invokeSMEC",
        "operationId": "invokeSMECUsingPOST",
        "consumes": [
          "application/json"
        ],
        "produces": [
          "application/json"
        ],
        "parameters": [
          {
            "in": "body",
            "name": "sMECRequestJSON",
            "description": "sMECRequestJSON",
            "required": true,
            "schema": {
              "type": "string"
            }
          }
        ],
        "responses": {
          "200": {
            "description": "OK",
            "schema": {
              "type": "object"
            }
          },
          "201": {
            "description": "Created"
          },
          "401": {
            "description": "Unauthorized"
          },
          "403": {
            "description": "Forbidden"
          },
          "404": {
            "description": "Not Found"
          }
        }
      }
    },
    "/invokeTestResubAgencyRequest": {
      "post": {
        "tags": [
          "vlp-controller"
        ],
        "summary": "invokeTestResubAgencyRequest",
        "operationId": "invokeTestResubAgencyRequestUsingPOST",
        "consumes": [
          "application/json"
        ],
        "produces": [
          "application/json"
        ],
        "parameters": [
          {
            "in": "body",
            "name": "vlpRequestJSON",
            "description": "vlpRequestJSON",
            "required": true,
            "schema": {
              "type": "string"
            }
          }
        ],
        "responses": {
          "200": {
            "description": "OK",
            "schema": {
              "type": "object"
            }
          },
          "201": {
            "description": "Created"
          },
          "401": {
            "description": "Unauthorized"
          },
          "403": {
            "description": "Forbidden"
          },
          "404": {
            "description": "Not Found"
          }
        }
      }
    },
    "/invokeTestReverifyAgencyRequest": {
      "post": {
        "tags": [
          "vlp-controller"
        ],
        "summary": "invokeTestReverifyAgencyRequest",
        "operationId": "invokeTestReverifyAgencyRequestUsingPOST",
        "consumes": [
          "application/json"
        ],
        "produces": [
          "application/json"
        ],
        "parameters": [
          {
            "in": "body",
            "name": "vlpRequestJSON",
            "description": "vlpRequestJSON",
            "required": true,
            "schema": {
              "type": "string"
            }
          }
        ],
        "responses": {
          "200": {
            "description": "OK",
            "schema": {
              "type": "object"
            }
          },
          "201": {
            "description": "Created"
          },
          "401": {
            "description": "Unauthorized"
          },
          "403": {
            "description": "Forbidden"
          },
          "404": {
            "description": "Not Found"
          }
        }
      }
    },
    "/invokeTestVerifiedLawfulPresence": {
      "post": {
        "tags": [
          "vlp-controller"
        ],
        "summary": "invokeTestVerifiedLawfulPresence",
        "operationId": "invokeTestVerifiedLawfulPresenceUsingPOST",
        "consumes": [
          "application/json"
        ],
        "produces": [
          "application/json"
        ],
        "parameters": [
          {
            "in": "body",
            "name": "vlpRequestJSON",
            "description": "vlpRequestJSON",
            "required": true,
            "schema": {
              "type": "string"
            }
          }
        ],
        "responses": {
          "200": {
            "description": "OK",
            "schema": {
              "type": "object"
            }
          },
          "201": {
            "description": "Created"
          },
          "401": {
            "description": "Unauthorized"
          },
          "403": {
            "description": "Forbidden"
          },
          "404": {
            "description": "Not Found"
          }
        }
      }
    },
    "/invokeVCI": {
      "post": {
        "tags": [
          "vci-controller"
        ],
        "summary": "invokeIFSV",
        "operationId": "invokeIFSVUsingPOST_1",
        "consumes": [
          "application/json"
        ],
        "produces": [
          "application/json"
        ],
        "parameters": [
          {
            "in": "body",
            "name": "vciRequestJSON",
            "description": "vciRequestJSON",
            "required": true,
            "schema": {
              "type": "string"
            }
          }
        ],
        "responses": {
          "200": {
            "description": "OK",
            "schema": {
              "type": "object"
            }
          },
          "201": {
            "description": "Created"
          },
          "401": {
            "description": "Unauthorized"
          },
          "403": {
            "description": "Forbidden"
          },
          "404": {
            "description": "Not Found"
          }
        }
      }
    },
    "/invokeVerifiedLawfulPresence": {
      "post": {
        "tags": [
          "vlp-controller"
        ],
        "summary": "invokeVerifiedLawfulPresence",
        "operationId": "invokeVerifiedLawfulPresenceUsingPOST",
        "consumes": [
          "application/json"
        ],
        "produces": [
          "application/json"
        ],
        "parameters": [
          {
            "in": "body",
            "name": "vlpRequestJSON",
            "description": "vlpRequestJSON",
            "required": true,
            "schema": {
              "type": "string"
            }
          }
        ],
        "responses": {
          "200": {
            "description": "OK",
            "schema": {
              "type": "json"
            }
          },
          "201": {
            "description": "Created"
          },
          "401": {
            "description": "Unauthorized"
          },
          "403": {
            "description": "Forbidden"
          },
          "404": {
            "description": "Not Found"
          }
        }
      }
    }
  }
}
