//created on: Nov 28, 2012
package com.getinsured.hix.plandisplay.service.rules

//list any import classes here.
import com.getinsured.hix.plandisplay.model.RulePlanInput;


//declare any global variables here
no-loop


rule "Plan Display Integration Test"

    when
        $ruleInput : RulePlanInput(this==$ruleInput)
        eval(true)
    then
        $ruleInput.setI($ruleInput.getI() + 1);
        update($ruleInput);
        System.out.println("Rule Name: => " + drools.getRule().getName());
        System.out.println("In rule increment int => " + $ruleInput.getI());
end