{
  "2018" : {
    "SINGLE_UNDER_65": 12000,
    "SINGLE_OVER_65": 13600,
    "SINGLE_BLIND_OVER_65": 15200,
    "MFJ_BOTH_UNDER_65": 24000,
    "MFJ_ONE_OVER_65": 25300,
    "MFJ_BOTH_OVER_65": 16600,
    "MFS": 5,
    "HOH_UNDER_65": 18000,
    "HOH_OVER_65": 19600,
    "QW_UNDER_65": 24000,
    "QW_OVER_65": 25300
  },
  "2019" : {
    "SINGLE_UNDER_65": 12000,
    "SINGLE_OVER_65": 13600,
    "SINGLE_BLIND_OVER_65": 15200,
    "MFJ_BOTH_UNDER_65": 24000,
    "MFJ_ONE_OVER_65": 25300,
    "MFJ_BOTH_OVER_65": 16600,
    "MFS": 5,
    "HOH_UNDER_65": 18000,
    "HOH_OVER_65": 19600,
    "QW_UNDER_65": 24000,
    "QW_OVER_65": 25300
  }
}
